# This file uses centimeters as units for non-parametric coordinates.

mtllib Alavanca_LP.mtl
g default
v 0.202254 0.146946 -1.692563
v 0.077254 0.237764 -1.692563
v -0.077254 0.237764 -1.692563
v -0.202254 0.146946 -1.692563
v -0.250000 -0.000000 -1.692563
v -0.202254 -0.146946 -1.692563
v -0.077254 -0.237764 -1.692563
v 0.077254 -0.237764 -1.692563
v 0.202254 -0.146946 -1.692563
v 0.250000 -0.000000 -1.692563
v 0.081676 0.251373 0.783663
v 0.213830 0.155357 0.783663
v 0.264309 -0.000000 0.783663
v 0.213830 -0.155357 0.783663
v 0.081676 -0.251373 0.783663
v -0.081676 -0.251373 0.783663
v -0.213830 -0.155357 0.783663
v -0.264309 -0.000000 0.783663
v -0.213830 0.155357 0.783663
v -0.081676 0.251373 0.783663
v 0.224129 0.162839 2.021776
v 0.277038 -0.000000 2.021776
v 0.224129 -0.162839 2.021776
v 0.085610 -0.263479 2.021776
v -0.085610 -0.263479 2.021776
v -0.224129 -0.162839 2.021776
v -0.277038 -0.000000 2.021776
v -0.224129 0.162839 2.021776
v -0.085610 0.263479 2.021776
v 0.085610 0.263479 2.021776
v 0.248117 0.180267 3.283083
v 0.183182 0.133090 3.362696
v 0.226426 0.000000 3.362696
v 0.306689 0.000000 3.283083
v 0.094772 0.291679 3.283083
v 0.069969 0.215343 3.362696
v -0.094772 0.291679 3.283083
v -0.069969 0.215343 3.362696
v -0.248117 0.180267 3.283083
v -0.183182 0.133090 3.362697
v -0.306689 -0.000000 3.283083
v -0.226425 -0.000000 3.362696
v -0.248117 -0.180267 3.283083
v -0.183182 -0.133090 3.362696
v -0.094772 -0.291679 3.283083
v -0.069969 -0.215343 3.362696
v 0.094772 -0.291679 3.283083
v 0.069969 -0.215343 3.362696
v 0.248117 -0.180267 3.283083
v 0.183182 -0.133090 3.362696
v 0.000000 0.000000 3.368688
v 0.271246 0.197072 2.023048
v 0.335278 -0.000000 2.023048
v 0.271246 -0.197072 2.023048
v 0.103607 -0.318869 2.023048
v -0.103607 -0.318869 2.023048
v -0.271246 -0.197072 2.023048
v -0.335278 -0.000000 2.023048
v -0.271246 0.197072 2.023048
v -0.103607 0.318869 2.023048
v 0.103607 0.318869 2.023048
vt 0.000000 0.566656
vt 0.025827 0.557555
vt 0.043862 0.583085
vt 0.028317 0.605631
vt 0.000000 0.518482
vt 0.026245 0.526298
vt 0.028317 0.479507
vt 0.044953 0.501258
vt 0.074133 0.464620
vt 0.074808 0.491997
vt 0.119950 0.479508
vt 0.104405 0.502052
vt 0.148265 0.518482
vt 0.122438 0.527583
vt 0.148265 0.566655
vt 0.122021 0.558838
vt 0.119950 0.605630
vt 0.103312 0.583879
vt 0.074133 0.620516
vt 0.073458 0.593141
vt 0.998765 0.203367
vt 0.998776 0.248725
vt 0.648160 0.237224
vt 0.648163 0.191217
vt 0.998871 0.294078
vt 0.648303 0.283224
vt 0.999047 0.339424
vt 0.648590 0.329203
vt 0.999303 0.384760
vt 0.649025 0.375145
vt 0.999631 0.430088
vt 0.649604 0.421034
vt 1.000000 0.475870
vt 0.650339 0.466852
vt 0.999535 0.021900
vt 0.999229 0.067269
vt 0.649047 0.053306
vt 0.649615 0.007430
vt 0.998995 0.112638
vt 0.648607 0.099241
vt 0.998840 0.158003
vt 0.648312 0.145217
vt 0.074133 0.542568
vt 0.300113 0.238312
vt 0.300066 0.190761
vt 0.300231 0.143202
vt 0.300613 0.095634
vt 0.301218 0.048060
vt 0.302092 0.000000
vt 0.303534 0.475870
vt 0.302416 0.428389
vt 0.301519 0.380891
vt 0.300839 0.333379
vt 0.300371 0.285852
vt 0.298454 0.143891
vt 0.299464 0.191905
vt 0.007387 0.195999
vt 0.006464 0.152079
vt 0.296771 0.095896
vt 0.004924 0.108177
vt 0.294416 0.047929
vt 0.002769 0.064300
vt 0.291389 0.000000
vt 0.000000 0.020457
vt 0.294415 0.431928
vt 0.291387 0.479857
vt 0.000000 0.459397
vt 0.002769 0.415555
vt 0.296770 0.383961
vt 0.004924 0.371679
vt 0.298454 0.335966
vt 0.006464 0.327776
vt 0.299464 0.287952
vt 0.007387 0.283857
vt 0.299800 0.239928
vt 0.007695 0.239928
vt 0.206213 0.611968
vt 0.245896 0.611968
vt 0.250067 0.624809
vt 0.202042 0.624809
vt 0.174106 0.588648
vt 0.163185 0.596586
vt 0.161832 0.550910
vt 0.148330 0.550916
vt 0.174077 0.513164
vt 0.163150 0.505234
vt 0.206258 0.489795
vt 0.174134 0.513092
vt 0.163220 0.505146
vt 0.202096 0.476952
vt 0.245939 0.489823
vt 0.250120 0.476986
vt 0.278029 0.513166
vt 0.288956 0.505236
vt 0.290276 0.550910
vt 0.303778 0.550915
vt 0.278002 0.588647
vt 0.288924 0.596586
vn 0.807312 0.586547 0.064882
vn 0.390464 0.283689 0.875819
vn 0.482640 0.000000 0.875819
vn 0.997893 0.000000 0.064882
vn 0.308366 0.949053 0.064882
vn 0.149144 0.459018 0.875819
vn -0.308366 0.949053 0.064882
vn -0.149144 0.459018 0.875819
vn -0.807312 0.586547 0.064882
vn -0.390464 0.283689 0.875819
vn -0.997893 -0.000000 0.064882
vn -0.482640 0.000000 0.875819
vn -0.807312 -0.586547 0.064882
vn -0.390464 -0.283689 0.875819
vn -0.308366 -0.949053 0.064882
vn -0.149144 -0.459018 0.875819
vn 0.308366 -0.949053 0.064882
vn 0.149144 -0.459017 0.875819
vn 0.807312 -0.586547 0.064882
vn 0.390464 -0.283688 0.875819
vn 0.809004 0.587775 -0.005778
vn 0.309012 0.951041 -0.005778
vn 0.309009 0.951031 -0.007334
vn 0.808995 0.587769 -0.007334
vn -0.309012 0.951041 -0.005778
vn -0.309009 0.951031 -0.007334
vn -0.809003 0.587775 -0.005778
vn -0.808995 0.587769 -0.007334
vn -0.999983 -0.000000 -0.005778
vn -0.999973 -0.000000 -0.007334
vn -0.809003 -0.587776 -0.005778
vn -0.808995 -0.587770 -0.007334
vn -0.309012 -0.951041 -0.005778
vn -0.309009 -0.951031 -0.007334
vn 0.309012 -0.951041 -0.005778
vn 0.309009 -0.951031 -0.007334
vn 0.809003 -0.587775 -0.005778
vn 0.808995 -0.587769 -0.007334
vn 0.999983 -0.000000 -0.005778
vn 0.999973 -0.000000 -0.007334
vn 0.000000 -0.000001 1.000000
vn 0.309001 0.951006 -0.010281
vn 0.808974 0.587754 -0.010281
vn 0.999947 -0.000000 -0.010281
vn 0.808974 -0.587754 -0.010281
vn 0.309001 -0.951006 -0.010281
vn -0.309001 -0.951006 -0.010281
vn -0.808974 -0.587754 -0.010281
vn -0.999947 -0.000000 -0.010281
vn -0.808974 0.587754 -0.010281
vn -0.309001 0.951006 -0.010281
vn 0.999743 0.000000 0.022684
vn 0.808809 0.587634 0.022684
vn 0.808809 -0.587634 0.022684
vn 0.308937 -0.950812 0.022684
vn -0.308937 -0.950812 0.022684
vn -0.808809 -0.587634 0.022684
vn -0.999743 -0.000000 0.022684
vn -0.808809 0.587634 0.022684
vn -0.308938 0.950812 0.022684
vn 0.308937 0.950812 0.022684
vn 0.021831 0.000000 -0.999762
vn 0.017661 0.012832 -0.999762
vn 0.017661 0.012832 -0.999762
vn 0.021831 0.000000 -0.999762
vn 0.017661 -0.012831 -0.999762
vn 0.017661 -0.012831 -0.999762
vn 0.006746 -0.020762 -0.999762
vn 0.006746 -0.020762 -0.999762
vn -0.006746 -0.020762 -0.999762
vn -0.006746 -0.020762 -0.999762
vn -0.017661 -0.012831 -0.999762
vn -0.017661 -0.012831 -0.999762
vn -0.021831 -0.000000 -0.999762
vn -0.021831 -0.000000 -0.999762
vn -0.017661 0.012832 -0.999762
vn -0.017661 0.012832 -0.999762
vn -0.006746 0.020763 -0.999762
vn -0.006746 0.020763 -0.999762
vn 0.006746 0.020763 -0.999762
vn 0.006746 0.020763 -0.999762
s 1
g Alavanca
usemtl blinn1SG
f 31/1/1 32/2/2 33/3/3 34/4/4
f 32/2/2 31/1/1 35/5/5 36/6/6
f 36/6/6 35/5/5 37/7/7 38/8/8
f 38/8/8 37/7/7 39/9/9 40/10/10
f 40/10/10 39/9/9 41/11/11 42/12/12
f 42/12/12 41/11/11 43/13/13 44/14/14
f 44/14/14 43/13/13 45/15/15 46/16/16
f 46/16/16 45/15/15 47/17/17 48/18/18
f 48/18/18 47/17/17 49/19/19 50/20/20
f 50/20/20 49/19/19 34/4/4 33/3/3
s 2
f 1/21/21 2/22/22 11/23/23 12/24/24
f 2/22/22 3/25/25 20/26/26 11/23/23
f 3/25/25 4/27/27 19/28/28 20/26/26
f 4/27/27 5/29/29 18/30/30 19/28/28
f 5/29/29 6/31/31 17/32/32 18/30/30
f 6/31/31 7/33/33 16/34/34 17/32/32
f 7/35/33 8/36/35 15/37/36 16/38/34
f 8/36/35 9/39/37 14/40/38 15/37/36
f 9/39/37 10/41/39 13/42/40 14/40/38
f 10/41/39 1/21/21 12/24/24 13/42/40
s 1
f 32/2/2 36/6/6 51/43/41
f 36/6/6 38/8/8 51/43/41
f 38/8/8 40/10/10 51/43/41
f 40/10/10 42/12/12 51/43/41
f 42/12/12 44/14/14 51/43/41
f 44/14/14 46/16/16 51/43/41
f 46/16/16 48/18/18 51/43/41
f 48/18/18 50/20/20 51/43/41
f 50/20/20 33/3/3 51/43/41
f 33/3/3 32/2/2 51/43/41
s 2
f 12/24/24 11/23/23 30/44/42 21/45/43
f 13/42/40 12/24/24 21/45/43 22/46/44
f 14/40/38 13/42/40 22/46/44 23/47/45
f 15/37/36 14/40/38 23/47/45 24/48/46
f 16/38/34 15/37/36 24/48/46 25/49/47
f 17/32/32 16/34/34 25/50/47 26/51/48
f 18/30/30 17/32/32 26/51/48 27/52/49
f 19/28/28 18/30/30 27/52/49 28/53/50
f 20/26/26 19/28/28 28/53/50 29/54/51
f 11/23/23 20/26/26 29/54/51 30/44/42
s 1
f 53/55/52 52/56/53 31/57/1 34/58/4
f 54/59/54 53/55/52 34/58/4 49/60/19
f 55/61/55 54/59/54 49/60/19 47/62/17
f 56/63/56 55/61/55 47/62/17 45/64/15
f 57/65/57 56/66/56 45/67/15 43/68/13
f 58/69/58 57/65/57 43/68/13 41/70/11
f 59/71/59 58/69/58 41/70/11 39/72/9
f 60/73/60 59/71/59 39/72/9 37/74/7
f 61/75/61 60/73/60 37/74/7 35/76/5
f 52/56/53 61/75/61 35/76/5 31/57/1
s 3
f 22/77/62 21/78/63 52/79/64 53/80/65
f 23/81/66 22/77/62 53/80/65 54/82/67
f 24/83/68 23/81/66 54/82/67 55/84/69
f 25/85/70 24/83/68 55/84/69 56/86/71
f 26/87/72 25/88/70 56/89/71 57/90/73
f 27/91/74 26/87/72 57/90/73 58/92/75
f 28/93/76 27/91/74 58/92/75 59/94/77
f 29/95/78 28/93/76 59/94/77 60/96/79
f 30/97/80 29/95/78 60/96/79 61/98/81
f 21/78/63 30/97/80 61/98/81 52/79/64
