# This file uses centimeters as units for non-parametric coordinates.

mtllib Tocha_LP.mtl
g default
v 0.207219 1.521928 -0.151541
v 0.080258 1.521261 -0.243410
v -0.076141 1.521417 -0.244221
v -0.200587 1.532323 -0.148101
v -0.237680 1.569200 -0.001155
v -0.200587 1.532095 0.145674
v -0.074854 1.508087 0.235282
v 0.080735 1.515278 0.224649
v 0.207261 1.521865 0.149017
v 0.271308 1.580841 -0.001155
v 0.194282 2.531782 -0.155946
v 0.074969 2.531782 -0.251612
v -0.100148 2.531782 -0.251612
v -0.231821 2.531782 -0.155946
v -0.282115 2.531782 -0.001155
v -0.231821 2.531782 0.153636
v -0.100148 2.531782 0.249302
v 0.074969 2.531782 0.249302
v 0.194282 2.531657 0.158368
v 0.244577 2.531782 -0.001155
v 0.083093 1.318132 -0.060428
v 0.032673 1.318132 -0.097061
v -0.029651 1.318132 -0.097061
v -0.080072 1.318132 -0.060428
v -0.098889 1.319661 -0.001155
v -0.080072 1.318132 0.058118
v -0.029651 1.317320 0.094334
v 0.032673 1.317897 0.094083
v 0.083093 1.318132 0.058118
v 0.102285 1.320137 -0.001155
v 0.132132 -2.618516 0.083498
v 0.145701 2.588788 -0.105915
v 0.056586 2.588788 -0.170660
v 0.001511 2.620129 -0.001155
v -0.053565 2.588788 -0.170660
v -0.142679 2.588788 -0.105915
v -0.176718 2.588788 -0.001155
v -0.142679 2.588788 0.103605
v -0.053565 2.588788 0.168351
v 0.056586 2.588788 0.168351
v 0.145701 2.588788 0.103605
v 0.179739 2.588788 -0.001155
v 0.168787 1.516021 -0.122806
v 0.206812 1.538105 -0.001155
v 0.168787 1.515552 0.119163
v 0.065466 1.504293 0.178707
v -0.062445 1.497059 0.187078
v -0.164878 1.513523 0.119793
v -0.194644 1.548679 -0.001155
v -0.164878 1.514891 -0.122806
v -0.062445 1.511261 -0.197990
v 0.065466 1.511261 -0.197990
v 0.223848 2.031782 -0.162692
v 0.086436 2.031782 -0.262528
v -0.083415 2.031782 -0.262527
v -0.220826 2.031782 -0.162692
v -0.273313 2.031782 -0.001155
v -0.220826 2.031782 0.160382
v -0.083414 2.031782 0.260218
v 0.086436 2.031782 0.260218
v 0.223847 2.031782 0.160382
v 0.276334 2.031782 -0.001155
v 0.213599 2.281782 -0.169980
v 0.268454 2.277615 0.003280
v 0.214730 2.281422 0.183581
v 0.069987 2.279878 0.276445
v -0.107526 2.281782 0.272010
v -0.251137 2.281782 0.167671
v -0.305992 2.281782 -0.001155
v -0.251138 2.281782 -0.169980
v -0.107526 2.281782 -0.274320
v 0.069987 2.281782 -0.274320
v 0.203765 1.781782 -0.148101
v 0.078765 1.781782 -0.238919
v -0.075744 1.781782 -0.238919
v -0.200744 1.781782 -0.148101
v -0.248489 1.781782 -0.001155
v -0.200744 1.781782 0.145792
v -0.075744 1.781782 0.236609
v 0.078765 1.781782 0.236609
v 0.203765 1.781782 0.145792
v 0.251511 1.781782 -0.001155
v 0.228811 2.156782 -0.172996
v 0.082635 2.156782 -0.279200
v -0.098050 2.156782 -0.279200
v -0.244227 2.156782 -0.172996
v -0.300061 2.156782 -0.001155
v -0.244226 2.156782 0.170686
v -0.098050 2.156782 0.276890
v 0.082635 2.156782 0.276890
v 0.227680 2.157912 0.176229
v 0.284646 2.156782 -0.001155
v 0.220345 1.906782 -0.160148
v 0.272005 1.906782 -0.001155
v 0.220345 1.906782 0.157838
v 0.085098 1.906782 0.256101
v -0.082077 1.906782 0.256101
v -0.217324 1.906782 0.157838
v -0.268984 1.906782 -0.001155
v -0.217324 1.906782 -0.160148
v -0.082077 1.906782 -0.258411
v 0.085098 1.906782 -0.258411
v 0.217932 1.656782 -0.148101
v 0.092932 1.656782 -0.238919
v -0.061577 1.656782 -0.238919
v -0.186577 1.656782 -0.148101
v -0.234323 1.656782 -0.001155
v -0.186577 1.656782 0.145792
v -0.061577 1.656782 0.236609
v 0.092932 1.656782 0.236609
v 0.217932 1.656782 0.145792
v 0.265677 1.656782 -0.001155
v 0.231045 2.469271 -0.151290
v 0.279913 2.467921 0.000547
v 0.225463 2.470150 0.169205
v 0.080753 2.470016 0.254350
v -0.095796 2.469271 0.242461
v -0.230308 2.469271 0.149509
v -0.279176 2.469271 -0.000891
v -0.230308 2.469271 -0.151290
v -0.095796 2.469271 -0.244242
v 0.080753 2.469271 -0.244242
v 0.228033 1.594282 -0.150167
v 0.101275 1.594282 -0.242262
v -0.055406 1.594282 -0.242262
v -0.182164 1.594282 -0.150167
v -0.228827 1.600351 -0.001155
v -0.182164 1.594282 0.147858
v -0.055406 1.591662 0.238606
v 0.101275 1.592992 0.236284
v 0.228033 1.594282 0.147858
v 0.276014 1.607138 -0.001155
v 0.292269 1.514525 -0.001155
v 0.245260 1.504508 -0.001155
v -0.211882 1.431561 0.131027
v -0.173509 1.424476 0.106913
v -0.260340 1.431956 -0.002763
v -0.213403 1.421739 -0.001155
v -0.222277 1.477675 -0.134996
v -0.183721 1.473294 -0.110884
v 0.131365 1.423709 -0.091617
v 0.161244 1.423709 -0.001155
v 0.131365 1.423709 0.088641
v 0.051077 1.423709 0.136395
v -0.048267 1.423709 0.140706
v -0.128091 1.423709 0.088956
v -0.153462 1.423709 -0.001155
v -0.128091 1.423709 -0.091617
v -0.048267 1.423709 -0.147525
v 0.051077 1.423709 -0.147525
v 0.252145 2.468276 -0.166473
v 0.305992 2.464826 0.000036
v 0.245768 2.467954 0.185977
v 0.087080 2.470244 0.279200
v -0.104676 2.469781 0.266183
v -0.251524 2.467337 0.164064
v -0.305109 2.466022 -0.001155
v -0.251524 2.467337 -0.166374
v -0.104279 2.470149 -0.268453
v 0.088372 2.470887 -0.268559
v 0.249233 1.494004 -0.001155
v 0.172265 1.505458 -0.126245
v 0.172307 1.505009 0.122625
v 0.067436 1.493818 0.183237
v -0.061555 1.487091 0.193004
v -0.175341 1.414402 0.111091
v -0.217304 1.411435 -0.002763
v -0.185735 1.463125 -0.116064
v -0.062842 1.500896 -0.203291
v 0.066959 1.500740 -0.202480
v 0.081914 -0.645133 -0.060428
v 0.031547 -0.647458 -0.097061
v -0.030710 -0.650332 -0.097061
v -0.081078 -0.652657 -0.060428
v -0.100131 -0.652771 -0.001155
v -0.081078 -0.652657 0.058118
v -0.030692 -0.650738 0.094543
v 0.031552 -0.647575 0.094417
v 0.081914 -0.645133 0.058118
v 0.101072 -0.643245 -0.001155
v 0.123862 -1.628919 -0.040220
v 0.069418 -1.570994 -0.079033
v 0.007305 -1.575963 -0.078801
v -0.042945 -1.578479 -0.042020
v -0.062036 -1.577096 0.017242
v -0.042945 -1.573615 0.076393
v 0.007324 -1.568349 0.112674
v 0.069423 -1.563203 0.112357
v 0.123862 -1.622432 0.078148
v 0.142979 -1.623428 0.018841
v 0.205253 -2.606777 0.029865
v 0.212502 -2.596824 0.023385
v 0.160062 -2.612707 -0.002829
v 0.162291 -2.603413 -0.012942
v 0.104202 -2.617807 -0.002550
v 0.100226 -2.609080 -0.012631
v 0.059011 -2.620129 0.030597
v 0.050015 -2.611660 0.024198
v 0.041750 -2.618786 0.083951
v 0.030837 -2.610168 0.083478
v 0.059011 -2.614292 0.137131
v 0.050015 -2.605175 0.142567
v 0.104202 -2.608361 0.169826
v 0.100226 -2.598585 0.178893
v 0.160061 -2.603261 0.169546
v 0.162291 -2.592918 0.178581
v 0.205253 -2.600939 0.136400
v 0.212502 -2.590338 0.141754
v 0.222514 -2.602281 0.083046
v 0.231681 -2.591830 0.082473
v 0.188619 -2.435855 0.005887
v 0.138408 -2.442444 -0.030440
v 0.076343 -2.448111 -0.030129
v 0.020005 -2.400705 0.002461
v 0.000864 -2.399017 0.061731
v 0.020005 -2.394219 0.120830
v 0.076350 -2.437694 0.161360
v 0.138410 -2.431975 0.161023
v 0.188619 -2.429369 0.124256
v 0.207775 -2.430675 0.064965
v 0.032258 -2.500678 0.010939
v 0.013099 -2.499088 0.070214
v 0.032258 -2.494192 0.129308
v 0.115474 -1.502023 -0.045040
v 0.115474 -1.498780 0.073418
v 0.134612 -1.498334 0.014127
v 0.168580 -1.560881 0.016484
v -0.045554 -2.449053 0.065972
v -0.034523 -2.424879 0.034217
v -0.032116 -2.448582 0.017922
v -0.033999 -2.474865 0.038456
v -0.034818 -2.474071 0.068093
v -0.033999 -2.471622 0.097640
v -0.032115 -2.443373 0.113666
v -0.034523 -2.421636 0.093401
v -0.035341 -2.424035 0.063852
v 0.158188 -1.529830 0.044951
v 0.155509 -1.562042 0.064421
v 0.158675 -1.591657 0.047316
v 0.159787 -1.592154 0.017662
v 0.158675 -1.594900 -0.011868
v 0.155508 -1.565938 -0.031275
v 0.158188 -1.531452 -0.014278
v 0.159301 -1.529607 0.015306
v 0.196673 1.714248 -0.137315
v 0.195378 1.726549 -0.137375
v 0.079504 1.718349 -0.221539
v 0.080872 1.707196 -0.221500
v -0.063684 1.725310 -0.221500
v -0.062316 1.713130 -0.221539
v -0.179485 1.710903 -0.137315
v -0.178190 1.700808 -0.137375
v -0.223711 1.728392 -0.001155
v -0.222454 1.716799 -0.001155
v -0.179485 1.727443 0.135006
v -0.178190 1.715668 0.135065
v -0.063684 1.716472 0.219191
v -0.062316 1.702794 0.219229
v 0.079504 1.717182 0.219229
v 0.080872 1.703605 0.219191
v 0.195378 1.733323 0.135065
v 0.196673 1.720045 0.135005
v 0.239642 1.732234 -0.001155
v 0.240899 1.719137 -0.001155
v 0.225802 2.400527 -0.164850
v 0.228889 2.412629 -0.164759
v 0.278982 2.384571 0.005636
v 0.281915 2.397993 0.005249
v 0.224781 2.399051 0.190822
v 0.227759 2.410940 0.192888
v 0.086591 2.406890 0.270488
v 0.087393 2.418478 0.271084
v -0.085566 2.400513 0.263710
v -0.086362 2.412859 0.263552
v -0.224834 2.391456 0.162545
v -0.226184 2.402209 0.162446
v -0.278023 2.400422 -0.001155
v -0.279382 2.412705 -0.001155
v -0.224834 2.392282 -0.164854
v -0.226184 2.405773 -0.164756
v -0.085568 2.400504 -0.266020
v -0.086311 2.412853 -0.265856
v 0.086568 2.405074 -0.266012
v 0.087519 2.418154 -0.265868
v 0.231950 2.399209 -0.169358
v 0.235037 2.411312 -0.169268
v 0.289473 2.395459 0.005162
v 0.286540 2.382004 0.005549
v 0.088942 2.405029 -0.273385
v 0.089893 2.418165 -0.273240
v 0.233513 2.409233 0.197518
v 0.230535 2.397343 0.195452
v 0.089195 2.418019 0.278660
v 0.088392 2.406430 0.278064
v -0.088920 2.412613 0.270924
v -0.088125 2.400267 0.271082
v -0.232432 2.400966 0.166998
v -0.231082 2.390264 0.167097
v -0.287096 2.411865 -0.001155
v -0.285737 2.399582 -0.001155
v -0.232432 2.404744 -0.169308
v -0.231081 2.391192 -0.169407
v -0.088701 2.412736 -0.273233
v -0.087958 2.400387 -0.273396
v 0.203951 1.715085 -0.142608
v 0.202656 1.727395 -0.142667
v 0.248628 1.733742 -0.001155
v 0.249884 1.720591 -0.001155
v 0.083657 1.706941 -0.230080
v 0.082289 1.718037 -0.230119
v -0.065101 1.712840 -0.230119
v -0.066469 1.725020 -0.230080
v -0.185468 1.698954 -0.142667
v -0.186763 1.708930 -0.142608
v -0.231440 1.716183 -0.001155
v -0.232696 1.727745 -0.001155
v -0.185468 1.715133 0.140358
v -0.186763 1.726886 0.140298
v -0.065101 1.701627 0.227809
v -0.066469 1.715389 0.227771
v 0.083657 1.703075 0.227771
v 0.082289 1.716733 0.227809
v 0.203951 1.721404 0.140298
v 0.202656 1.734745 0.140358
v 0.143667 1.410431 -0.050116
v 0.121098 1.413099 -0.091235
v 0.085946 1.417256 -0.123868
v 0.041651 1.422493 -0.144819
v -0.007450 1.428298 -0.152039
v -0.056550 1.434104 -0.144819
v -0.100845 1.439341 -0.123868
v -0.135997 1.443497 -0.091235
v -0.158566 1.446166 -0.050116
v -0.166343 1.447085 -0.004535
v -0.158566 1.446166 0.041047
v -0.135997 1.443497 0.082166
v -0.100845 1.439341 0.114799
v -0.056550 1.434104 0.135750
v -0.007450 1.428298 0.142969
v 0.041651 1.422493 0.135750
v 0.085946 1.417256 0.114799
v 0.121098 1.413099 0.082166
v 0.143667 1.410431 0.041047
v 0.151444 1.409511 -0.004535
v 0.147264 1.417126 -0.050950
v 0.124281 1.419843 -0.092823
v 0.088486 1.424076 -0.126053
v 0.043380 1.429409 -0.147388
v -0.006619 1.435320 -0.154739
v -0.056619 1.441232 -0.147388
v -0.101724 1.446565 -0.126053
v -0.137520 1.450798 -0.092823
v -0.160502 1.453515 -0.050950
v -0.168421 1.454451 -0.004535
v -0.160502 1.453515 0.041881
v -0.137520 1.450798 0.083753
v -0.101724 1.446565 0.116983
v -0.056619 1.441232 0.138318
v -0.006619 1.435320 0.145670
v 0.043380 1.429409 0.138318
v 0.088485 1.424076 0.116983
v 0.124281 1.419843 0.083753
v 0.147263 1.417126 0.041881
v 0.155183 1.416190 -0.004535
v 0.154286 1.419245 -0.052965
v 0.130306 1.422080 -0.096654
v 0.092957 1.426496 -0.131326
v 0.045894 1.432061 -0.153587
v -0.006275 1.438229 -0.161258
v -0.058445 1.444398 -0.153587
v -0.105508 1.449962 -0.131326
v -0.142857 1.454378 -0.096654
v -0.166837 1.457214 -0.052965
v -0.175099 1.458190 -0.004535
v -0.166837 1.457214 0.043895
v -0.142857 1.454378 0.087585
v -0.105508 1.449962 0.122257
v -0.058445 1.444398 0.144518
v -0.006275 1.438229 0.152188
v 0.045894 1.432061 0.144518
v 0.092957 1.426496 0.122257
v 0.130306 1.422080 0.087585
v 0.154286 1.419245 0.043895
v 0.162549 1.418268 -0.004535
v 0.160620 1.415547 -0.054979
v 0.135643 1.418500 -0.100486
v 0.096741 1.423100 -0.136600
v 0.047720 1.428896 -0.159787
v -0.006619 1.435320 -0.167777
v -0.060959 1.441745 -0.159787
v -0.109979 1.447541 -0.136600
v -0.148882 1.452141 -0.100486
v -0.173859 1.455094 -0.054979
v -0.182465 1.456112 -0.004535
v -0.173859 1.455094 0.045910
v -0.148882 1.452141 0.091417
v -0.109979 1.447541 0.127531
v -0.060959 1.441745 0.150718
v -0.006619 1.435320 0.158707
v 0.047720 1.428896 0.150718
v 0.096741 1.423100 0.127531
v 0.135643 1.418500 0.091417
v 0.160620 1.415547 0.045910
v 0.169227 1.414529 -0.004535
v 0.162557 1.408197 -0.055814
v 0.137166 1.411199 -0.102073
v 0.097620 1.415875 -0.138785
v 0.047789 1.421767 -0.162355
v -0.007450 1.428298 -0.170477
v -0.062688 1.434830 -0.162355
v -0.112519 1.440722 -0.138785
v -0.152065 1.445397 -0.102073
v -0.177456 1.448399 -0.055814
v -0.186204 1.449434 -0.004535
v -0.177456 1.448399 0.046744
v -0.152065 1.445397 0.093004
v -0.112519 1.440722 0.129715
v -0.062688 1.434830 0.153286
v -0.007450 1.428298 0.161408
v 0.047789 1.421767 0.153286
v 0.097620 1.415875 0.129715
v 0.137166 1.411199 0.093004
v 0.162556 1.408197 0.046744
v 0.171305 1.407163 -0.004535
v 0.158960 1.401502 -0.054979
v 0.133983 1.404455 -0.100486
v 0.095080 1.409055 -0.136600
v 0.046060 1.414851 -0.159787
v -0.008280 1.421276 -0.167777
v -0.062619 1.427701 -0.159787
v -0.111640 1.433497 -0.136600
v -0.150542 1.438097 -0.100486
v -0.175520 1.441050 -0.054979
v -0.184126 1.442068 -0.004535
v -0.175520 1.441050 0.045910
v -0.150542 1.438097 0.091417
v -0.111640 1.433497 0.127531
v -0.062619 1.427701 0.150718
v -0.008280 1.421276 0.158707
v 0.046060 1.414851 0.150718
v 0.095080 1.409055 0.127531
v 0.133983 1.404456 0.091417
v 0.158960 1.401502 0.045910
v 0.167566 1.400485 -0.004535
v 0.151938 1.399383 -0.052965
v 0.127958 1.402219 -0.096654
v 0.090609 1.406635 -0.131326
v 0.043546 1.412199 -0.153587
v -0.008624 1.418368 -0.161258
v -0.060793 1.424536 -0.153587
v -0.107856 1.430100 -0.131326
v -0.145205 1.434517 -0.096654
v -0.169185 1.437352 -0.052965
v -0.177448 1.438329 -0.004535
v -0.169185 1.437352 0.043895
v -0.145205 1.434517 0.087585
v -0.107856 1.430100 0.122257
v -0.060793 1.424536 0.144518
v -0.008624 1.418368 0.152188
v 0.043546 1.412199 0.144518
v 0.090609 1.406635 0.122257
v 0.127958 1.402219 0.087585
v 0.151937 1.399383 0.043895
v 0.160200 1.398406 -0.004535
v 0.145603 1.403082 -0.050950
v 0.122621 1.405799 -0.092823
v 0.086825 1.410031 -0.126053
v 0.041720 1.415364 -0.147388
v -0.008280 1.421276 -0.154739
v -0.058279 1.427188 -0.147388
v -0.103385 1.432521 -0.126053
v -0.139180 1.436754 -0.092823
v -0.162163 1.439471 -0.050950
v -0.170082 1.440407 -0.004535
v -0.162163 1.439471 0.041881
v -0.139180 1.436754 0.083753
v -0.103385 1.432521 0.116983
v -0.058279 1.427188 0.138318
v -0.008280 1.421276 0.145670
v 0.041720 1.415364 0.138318
v 0.086825 1.410031 0.116983
v 0.122621 1.405799 0.083753
v 0.145603 1.403082 0.041881
v 0.153522 1.402145 -0.004535
v 0.162892 1.463282 -0.056495
v 0.139008 1.463282 -0.103369
v 0.101809 1.463282 -0.140569
v 0.054934 1.463282 -0.164452
v 0.002974 1.463282 -0.172682
v -0.048987 1.463282 -0.164452
v -0.095861 1.463282 -0.140569
v -0.133060 1.463282 -0.103369
v -0.156944 1.463282 -0.056495
v -0.165174 1.463282 -0.004535
v -0.156944 1.463282 0.047426
v -0.133060 1.463282 0.094300
v -0.095861 1.463282 0.131500
v -0.048987 1.463282 0.155383
v 0.002974 1.463282 0.163613
v 0.054934 1.463282 0.155383
v 0.101808 1.463282 0.131500
v 0.139008 1.463282 0.094300
v 0.162892 1.463282 0.047426
v 0.171121 1.463282 -0.004535
v 0.165647 1.470353 -0.057390
v 0.141352 1.470353 -0.105072
v 0.103511 1.470353 -0.142913
v 0.055830 1.470353 -0.167208
v 0.002974 1.470353 -0.175579
v -0.049882 1.470353 -0.167208
v -0.097564 1.470353 -0.142913
v -0.135404 1.470353 -0.105072
v -0.159699 1.470353 -0.057390
v -0.168071 1.470353 -0.004535
v -0.159699 1.470353 0.048321
v -0.135404 1.470353 0.096003
v -0.097564 1.470353 0.133843
v -0.049882 1.470353 0.158138
v 0.002974 1.470353 0.166510
v 0.055830 1.470353 0.158138
v 0.103511 1.470353 0.133843
v 0.141352 1.470353 0.096003
v 0.165647 1.470353 0.048321
v 0.174018 1.470353 -0.004535
v 0.172299 1.473282 -0.059552
v 0.147010 1.473282 -0.109183
v 0.107622 1.473282 -0.148571
v 0.057991 1.473282 -0.173859
v 0.002974 1.473282 -0.182573
v -0.052043 1.473282 -0.173859
v -0.101675 1.473282 -0.148571
v -0.141062 1.473282 -0.109183
v -0.166351 1.473282 -0.059552
v -0.175065 1.473282 -0.004535
v -0.166351 1.473282 0.050482
v -0.141062 1.473282 0.100114
v -0.101675 1.473282 0.139502
v -0.052043 1.473282 0.164790
v 0.002974 1.473282 0.173504
v 0.057991 1.473282 0.164790
v 0.107622 1.473282 0.139502
v 0.147010 1.473282 0.100114
v 0.172299 1.473282 0.050482
v 0.181012 1.473282 -0.004535
v 0.178950 1.470353 -0.061713
v 0.152668 1.470353 -0.113294
v 0.111733 1.470353 -0.154229
v 0.060152 1.470353 -0.180511
v 0.002974 1.470353 -0.189567
v -0.054204 1.470353 -0.180511
v -0.105786 1.470353 -0.154229
v -0.146721 1.470353 -0.113294
v -0.173003 1.470353 -0.061713
v -0.182059 1.470353 -0.004535
v -0.173003 1.470353 0.052644
v -0.146721 1.470353 0.104225
v -0.105786 1.470353 0.145160
v -0.054204 1.470353 0.171442
v 0.002974 1.470353 0.180498
v 0.060152 1.470353 0.171442
v 0.111733 1.470353 0.145160
v 0.152668 1.470353 0.104225
v 0.178950 1.470353 0.052644
v 0.188006 1.470353 -0.004535
v 0.181706 1.463282 -0.062608
v 0.155012 1.463282 -0.114997
v 0.113436 1.463282 -0.156573
v 0.061047 1.463282 -0.183266
v 0.002974 1.463282 -0.192464
v -0.055100 1.463282 -0.183266
v -0.107488 1.463282 -0.156573
v -0.149064 1.463282 -0.114997
v -0.175758 1.463282 -0.062608
v -0.184956 1.463282 -0.004535
v -0.175758 1.463282 0.053539
v -0.149064 1.463282 0.105928
v -0.107488 1.463282 0.147504
v -0.055100 1.463282 0.174197
v 0.002974 1.463282 0.183395
v 0.061047 1.463282 0.174197
v 0.113436 1.463282 0.147504
v 0.155012 1.463282 0.105928
v 0.181706 1.463282 0.053539
v 0.190903 1.463282 -0.004535
v 0.178950 1.456211 -0.061713
v 0.152668 1.456211 -0.113294
v 0.111733 1.456211 -0.154229
v 0.060152 1.456211 -0.180511
v 0.002974 1.456211 -0.189567
v -0.054204 1.456211 -0.180511
v -0.105786 1.456211 -0.154229
v -0.146721 1.456211 -0.113294
v -0.173003 1.456211 -0.061713
v -0.182059 1.456211 -0.004535
v -0.173003 1.456211 0.052644
v -0.146721 1.456211 0.104225
v -0.105786 1.456211 0.145160
v -0.054204 1.456211 0.171442
v 0.002974 1.456211 0.180498
v 0.060152 1.456211 0.171442
v 0.111733 1.456211 0.145160
v 0.152668 1.456211 0.104225
v 0.178950 1.456211 0.052644
v 0.188006 1.456211 -0.004535
v 0.172299 1.453282 -0.059552
v 0.147010 1.453282 -0.109183
v 0.107622 1.453282 -0.148571
v 0.057991 1.453282 -0.173859
v 0.002974 1.453282 -0.182573
v -0.052043 1.453282 -0.173859
v -0.101675 1.453282 -0.148571
v -0.141062 1.453282 -0.109183
v -0.166351 1.453282 -0.059552
v -0.175065 1.453282 -0.004535
v -0.166351 1.453282 0.050482
v -0.141062 1.453282 0.100114
v -0.101675 1.453282 0.139502
v -0.052043 1.453282 0.164790
v 0.002974 1.453282 0.173504
v 0.057991 1.453282 0.164790
v 0.107622 1.453282 0.139502
v 0.147010 1.453282 0.100114
v 0.172299 1.453282 0.050482
v 0.181012 1.453282 -0.004535
v 0.165647 1.456211 -0.057390
v 0.141352 1.456211 -0.105072
v 0.103511 1.456211 -0.142913
v 0.055830 1.456211 -0.167208
v 0.002974 1.456211 -0.175579
v -0.049882 1.456211 -0.167208
v -0.097564 1.456211 -0.142913
v -0.135404 1.456211 -0.105072
v -0.159699 1.456211 -0.057390
v -0.168071 1.456211 -0.004535
v -0.159699 1.456211 0.048321
v -0.135404 1.456211 0.096003
v -0.097564 1.456211 0.133843
v -0.049882 1.456211 0.158138
v 0.002974 1.456211 0.166510
v 0.055830 1.456211 0.158138
v 0.103511 1.456211 0.133843
v 0.141352 1.456211 0.096003
v 0.165647 1.456211 0.048321
v 0.174018 1.456211 -0.004535
vt 0.543966 0.083231
vt 0.533700 0.148666
vt 0.487083 0.146156
vt 0.496356 0.078422
vt 0.525616 0.212515
vt 0.480432 0.211518
vt 0.520434 0.275134
vt 0.476570 0.274523
vt 0.518382 0.337015
vt 0.475049 0.336191
vt 0.519604 0.399010
vt 0.475888 0.398008
vt 0.524110 0.462062
vt 0.478789 0.461797
vt 0.531961 0.527041
vt 0.485150 0.528655
vt 0.542996 0.592646
vt 0.493703 0.596561
vt 0.559864 0.664314
vt 0.510411 0.671324
vt 0.555389 0.015200
vt 0.508716 0.008486
vt 0.643216 0.764589
vt 0.645799 0.727233
vt 0.702232 0.747968
vt 0.668549 0.698822
vt 0.703161 0.688258
vt 0.737818 0.699784
vt 0.759326 0.729495
vt 0.759695 0.766210
vt 0.738580 0.797296
vt 0.701915 0.810294
vt 0.664264 0.797629
vt 0.917197 0.074342
vt 0.948213 0.054732
vt 0.965082 0.096148
vt 0.945513 0.108509
vt 0.892502 0.102552
vt 0.930285 0.125995
vt 0.877331 0.135747
vt 0.920627 0.147130
vt 0.873767 0.170182
vt 0.917003 0.170097
vt 0.877684 0.204432
vt 0.920665 0.192879
vt 0.893190 0.236793
vt 0.930813 0.213480
vt 0.918803 0.264717
vt 0.946081 0.230924
vt 0.947519 0.285009
vt 0.965251 0.243820
vt 0.981339 0.294994
vt 0.987305 0.251034
vt 0.982470 0.045437
vt 0.987305 0.089486
vt 0.080126 0.973848
vt 0.045379 0.975636
vt 0.044667 0.703299
vt 0.078833 0.700946
vt 0.115116 0.971998
vt 0.115149 0.697964
vt 0.150398 0.970256
vt 0.151305 0.695210
vt 0.186002 0.969409
vt 0.187547 0.693369
vt 0.221502 0.967002
vt 0.223699 0.691365
vt 0.256879 0.965067
vt 0.259884 0.690321
vt 0.292060 0.963988
vt 0.296167 0.690247
vt 0.326934 0.962876
vt 0.332118 0.690235
vt 0.361666 0.962844
vt 0.365647 0.690166
vt 0.009884 0.978464
vt 0.010335 0.705285
vt 0.610007 0.766691
vt 0.615630 0.710674
vt 0.654666 0.664519
vt 0.709048 0.648763
vt 0.763442 0.667892
vt 0.796419 0.715106
vt 0.796945 0.772313
vt 0.762404 0.825783
vt 0.706917 0.846579
vt 0.641848 0.823460
vt 0.816929 0.083508
vt 0.848812 0.024733
vt 0.860315 0.040622
vt 0.832840 0.092516
vt 0.853107 0.542891
vt 0.816629 0.488941
vt 0.830787 0.478538
vt 0.861880 0.527309
vt 0.795856 0.437932
vt 0.811990 0.430927
vt 0.780484 0.385018
vt 0.797733 0.379837
vt 0.782855 0.328469
vt 0.795042 0.328413
vt 0.781167 0.293141
vt 0.793694 0.294779
vt 0.781099 0.252483
vt 0.796121 0.251519
vt 0.781848 0.189596
vt 0.799460 0.192646
vt 0.795736 0.135934
vt 0.812478 0.141035
vt 0.684505 0.111289
vt 0.671359 0.169390
vt 0.625016 0.160403
vt 0.637202 0.099570
vt 0.661403 0.226355
vt 0.615863 0.219987
vt 0.655417 0.282633
vt 0.610063 0.278988
vt 0.652588 0.338278
vt 0.607715 0.337536
vt 0.654462 0.393472
vt 0.609313 0.396060
vt 0.660650 0.449207
vt 0.614907 0.455035
vt 0.670370 0.505706
vt 0.624327 0.514630
vt 0.683940 0.562364
vt 0.637886 0.574881
vt 0.703211 0.618657
vt 0.656507 0.636719
vt 0.702051 0.052071
vt 0.652929 0.036295
vt 0.590998 0.089870
vt 0.579769 0.152693
vt 0.571119 0.214560
vt 0.565518 0.276011
vt 0.563273 0.337239
vt 0.564687 0.398569
vt 0.569827 0.460329
vt 0.578688 0.522763
vt 0.591409 0.586168
vt 0.608330 0.650992
vt 0.604394 0.025139
vt 0.793253 0.069047
vt 0.773806 0.121020
vt 0.751190 0.115525
vt 0.771037 0.062036
vt 0.757154 0.175600
vt 0.733352 0.171269
vt 0.742478 0.232044
vt 0.718699 0.228700
vt 0.730926 0.288690
vt 0.709596 0.287481
vt 0.735682 0.345207
vt 0.712420 0.347290
vt 0.752314 0.400437
vt 0.727766 0.405471
vt 0.770308 0.454075
vt 0.747504 0.460216
vt 0.793906 0.504873
vt 0.771658 0.513459
vt 0.817745 0.560526
vt 0.798236 0.569259
vt 0.811207 0.011658
vt 0.791262 0.005737
vt 0.618606 0.850118
vt 0.580752 0.781704
vt 0.702256 0.879387
vt 0.777588 0.849037
vt 0.822602 0.781589
vt 0.822602 0.707017
vt 0.781269 0.646615
vt 0.712136 0.621344
vt 0.640401 0.641623
vt 0.589866 0.701614
vt 0.764245 0.240957
vt 0.742400 0.289521
vt 0.756065 0.337424
vt 0.826962 0.554560
vt 0.821040 0.016312
vt 0.877114 0.062116
vt 0.839056 0.095724
vt 0.865563 0.045737
vt 0.837129 0.475414
vt 0.877112 0.504697
vt 0.867230 0.521787
vt 0.827463 0.338548
vt 0.804522 0.379134
vt 0.799720 0.328108
vt 0.843170 0.290037
vt 0.798525 0.295264
vt 0.816872 0.240682
vt 0.802844 0.251707
vt 0.806397 0.193815
vt 0.931767 0.019392
vt 0.975921 0.000000
vt 0.973720 0.340000
vt 0.930734 0.319716
vt 0.896694 0.291234
vt 0.865452 0.255054
vt 0.841248 0.215594
vt 0.825207 0.169869
vt 0.840826 0.124350
vt 0.860637 0.081570
vt 0.891860 0.045619
vt 0.948206 0.909813
vt 1.000000 0.942614
vt 0.997270 0.952335
vt 0.942564 0.917039
vt 1.000000 0.441126
vt 0.942705 0.478007
vt 0.936213 0.470796
vt 0.997076 0.430093
vt 0.901148 0.524293
vt 0.893453 0.518775
vt 0.869732 0.582921
vt 0.860861 0.579667
vt 0.854017 0.639045
vt 0.845148 0.638097
vt 0.851611 0.692151
vt 0.842900 0.692621
vt 0.857835 0.745090
vt 0.849190 0.746693
vt 0.874311 0.801066
vt 0.865622 0.804247
vt 0.905232 0.860729
vt 0.897310 0.866547
vt 0.818163 0.429115
vt 0.818663 0.143168
vt 0.042005 0.447790
vt 0.073875 0.411243
vt 0.112299 0.409572
vt 0.150181 0.408509
vt 0.184990 0.408039
vt 0.219919 0.407095
vt 0.254489 0.406271
vt 0.292064 0.405583
vt 0.328646 0.437464
vt 0.362473 0.436893
vt 0.009413 0.449936
vt 0.401777 0.072838
vt 0.401849 0.078295
vt 0.378843 0.070815
vt 0.381991 0.066359
vt 0.421597 0.066450
vt 0.424862 0.070824
vt 0.433876 0.049632
vt 0.439089 0.051252
vt 0.433923 0.028807
vt 0.439091 0.027052
vt 0.421718 0.011934
vt 0.424866 0.007475
vt 0.401927 0.005457
vt 0.401855 0.000000
vt 0.382111 0.011850
vt 0.378845 0.007478
vt 0.369838 0.028669
vt 0.364626 0.027052
vt 0.369792 0.049488
vt 0.364626 0.051243
vt 0.402138 0.039028
vt 0.035108 0.373032
vt 0.041072 0.106076
vt 0.078884 0.106941
vt 0.115022 0.106889
vt 0.152735 0.136640
vt 0.188116 0.136620
vt 0.220917 0.134170
vt 0.257373 0.099146
vt 0.294553 0.097098
vt 0.327981 0.369076
vt 0.329666 0.095855
vt 0.362349 0.369986
vt 0.365891 0.095780
vt 0.000000 0.373666
vt 0.005157 0.105473
vt 0.176529 0.118437
vt 0.170504 0.111509
vt 0.185831 0.108347
vt 0.075709 0.010522
vt 0.113128 0.012666
vt 0.149948 0.079392
vt 0.148586 0.013602
vt 0.183292 0.076548
vt 0.183151 0.012208
vt 0.219669 0.075648
vt 0.217889 0.008983
vt 0.253857 0.004737
vt 0.290230 0.001597
vt 0.326260 0.000000
vt 0.362710 0.000000
vt 0.001394 0.007705
vt 0.038198 0.008820
vt 0.375919 0.387880
vt 0.383818 0.401206
vt 0.362532 0.402882
vt 0.362620 0.417699
vt 0.349211 0.416972
vt 0.341245 0.401787
vt 0.348859 0.389454
vt 0.362393 0.388051
vt 0.376152 0.416305
vt 0.186387 0.117882
vt 0.175133 0.101422
vt 0.185249 0.098760
vt 0.196379 0.115543
vt 0.195297 0.098495
vt 0.201352 0.108106
vt 0.397975 0.369232
vt 0.432587 0.407642
vt 0.394661 0.438594
vt 0.377621 0.478878
vt 0.372339 0.479206
vt 0.370859 0.437951
vt 0.376915 0.437666
vt 0.377880 0.515917
vt 0.372724 0.516503
vt 0.376594 0.553638
vt 0.371377 0.554133
vt 0.377213 0.589962
vt 0.372042 0.590497
vt 0.375888 0.627922
vt 0.370664 0.628375
vt 0.377083 0.666105
vt 0.371511 0.666008
vt 0.379677 0.704125
vt 0.374063 0.704005
vt 0.381408 0.742044
vt 0.376027 0.742247
vt 0.381790 0.780356
vt 0.376503 0.780665
vt 0.384008 0.821803
vt 0.377840 0.822016
vt 0.706724 0.115676
vt 0.696931 0.172272
vt 0.684388 0.227280
vt 0.683795 0.283551
vt 0.674471 0.338394
vt 0.676509 0.393195
vt 0.686543 0.447760
vt 0.695777 0.502719
vt 0.702817 0.558291
vt 0.721437 0.610841
vt 0.721437 0.059422
vt 0.730217 0.110928
vt 0.747940 0.055301
vt 0.709805 0.166949
vt 0.700035 0.226568
vt 0.684017 0.286095
vt 0.687106 0.349549
vt 0.707996 0.409136
vt 0.727769 0.465725
vt 0.745964 0.523425
vt 0.771067 0.578473
vt 0.764796 0.000000
vt 0.422992 0.461897
vt 0.417735 0.461327
vt 0.421494 0.420526
vt 0.427311 0.420605
vt 0.421138 0.499703
vt 0.415632 0.499365
vt 0.427054 0.825200
vt 0.420065 0.826506
vt 0.414740 0.780819
vt 0.420541 0.780271
vt 0.412569 0.739081
vt 0.418359 0.738487
vt 0.412313 0.697457
vt 0.417965 0.697280
vt 0.412529 0.656782
vt 0.418206 0.656903
vt 0.412040 0.617499
vt 0.417653 0.617376
vt 0.413582 0.577661
vt 0.419055 0.577310
vt 0.414378 0.538505
vt 0.419927 0.538357
vt 0.450801 0.067987
vt 0.467597 0.000000
vt 0.467940 0.680399
vt 0.446179 0.604716
vt 0.435183 0.540410
vt 0.432769 0.471029
vt 0.433875 0.403050
vt 0.429966 0.335651
vt 0.434984 0.268725
vt 0.436169 0.201421
vt 0.440882 0.134361
vt 0.978653 0.978219
vt 0.923766 0.931024
vt 0.918577 0.457712
vt 0.977764 0.410415
vt 0.877209 0.505510
vt 0.842095 0.565507
vt 0.821094 0.629263
vt 0.821999 0.692869
vt 0.826416 0.754924
vt 0.846206 0.817263
vt 0.879513 0.878106
vt 0.412666 0.460733
vt 0.416041 0.421373
vt 0.432667 0.423112
vt 0.428220 0.462538
vt 0.426315 0.500128
vt 0.410296 0.498877
vt 0.413048 0.824960
vt 0.408871 0.780938
vt 0.426130 0.779913
vt 0.432667 0.822886
vt 0.406872 0.738964
vt 0.423968 0.738608
vt 0.406713 0.697214
vt 0.423427 0.697508
vt 0.407004 0.656556
vt 0.423601 0.657124
vt 0.406663 0.617156
vt 0.423110 0.617655
vt 0.408184 0.577272
vt 0.424345 0.577704
vt 0.409016 0.538110
vt 0.425236 0.538733
vt 0.367290 0.479167
vt 0.365540 0.439652
vt 0.382728 0.439595
vt 0.382914 0.479047
vt 0.382922 0.516177
vt 0.367611 0.516273
vt 0.381754 0.553841
vt 0.366379 0.553882
vt 0.382187 0.590216
vt 0.366878 0.590300
vt 0.381039 0.628109
vt 0.365540 0.628177
vt 0.382337 0.665990
vt 0.366237 0.666012
vt 0.384952 0.703995
vt 0.368781 0.704110
vt 0.386609 0.742119
vt 0.370797 0.742253
vt 0.386941 0.780330
vt 0.371215 0.780529
vt 0.389329 0.820050
vt 0.371914 0.820186
vt 0.977152 0.474647
vt 0.976449 0.456339
vt 0.979409 0.455985
vt 0.980112 0.474495
vt 0.977227 0.493588
vt 0.980165 0.493495
vt 0.977194 0.513145
vt 0.980145 0.513097
vt 0.977140 0.533068
vt 0.980098 0.533071
vt 0.977099 0.553011
vt 0.980057 0.553058
vt 0.977100 0.572622
vt 0.980045 0.572696
vt 0.977156 0.591625
vt 0.980083 0.591691
vt 0.977255 0.609997
vt 0.980163 0.610026
vt 0.977367 0.627957
vt 0.980263 0.627935
vt 0.977444 0.645881
vt 0.980342 0.645816
vt 0.977461 0.664167
vt 0.980371 0.664081
vt 0.977406 0.683061
vt 0.980336 0.682987
vt 0.977294 0.702576
vt 0.980239 0.702539
vt 0.977164 0.722447
vt 0.980115 0.722461
vt 0.977043 0.742339
vt 0.979994 0.742398
vt 0.976965 0.761899
vt 0.979904 0.761984
vt 0.976950 0.780857
vt 0.979870 0.780934
vt 0.976980 0.799190
vt 0.979883 0.799236
vt 0.976961 0.817122
vt 0.979863 0.817158
vt 0.976449 0.835064
vt 0.979332 0.835283
vt 0.982219 0.455306
vt 0.982877 0.474224
vt 0.982900 0.493270
vt 0.982860 0.512962
vt 0.982804 0.533057
vt 0.982771 0.553166
vt 0.982778 0.572873
vt 0.982836 0.591861
vt 0.982933 0.610114
vt 0.983037 0.627894
vt 0.983107 0.645655
vt 0.983118 0.663855
vt 0.983062 0.682775
vt 0.982948 0.702414
vt 0.982813 0.722459
vt 0.982700 0.742516
vt 0.982630 0.762172
vt 0.982616 0.781115
vt 0.982650 0.799337
vt 0.982692 0.817171
vt 0.982251 0.835687
vt 0.985098 0.454623
vt 0.985571 0.473986
vt 0.985593 0.493065
vt 0.985552 0.512841
vt 0.985496 0.533054
vt 0.985455 0.553274
vt 0.985468 0.573049
vt 0.985536 0.592031
vt 0.985642 0.610203
vt 0.985748 0.627866
vt 0.985813 0.645513
vt 0.985815 0.663650
vt 0.985748 0.682582
vt 0.985634 0.702303
vt 0.985499 0.722467
vt 0.985377 0.742634
vt 0.985312 0.762359
vt 0.985310 0.781293
vt 0.985355 0.799439
vt 0.985437 0.817178
vt 0.985239 0.836063
vt 0.988131 0.454302
vt 0.988310 0.473905
vt 0.988378 0.493000
vt 0.988367 0.512807
vt 0.988317 0.533069
vt 0.988267 0.553331
vt 0.988249 0.573128
vt 0.988276 0.592104
vt 0.988346 0.610246
vt 0.988439 0.627863
vt 0.988516 0.645470
vt 0.988552 0.663588
vt 0.988526 0.682529
vt 0.988442 0.702282
vt 0.988313 0.722494
vt 0.988181 0.742703
vt 0.988086 0.762448
vt 0.988043 0.781375
vt 0.988057 0.799487
vt 0.988139 0.817189
vt 0.988287 0.836182
vt 0.991197 0.454526
vt 0.991066 0.473985
vt 0.991163 0.493077
vt 0.991179 0.512863
vt 0.991140 0.533086
vt 0.991081 0.553299
vt 0.991034 0.573064
vt 0.991019 0.592035
vt 0.991052 0.610200
vt 0.991129 0.627861
vt 0.991219 0.645516
vt 0.991288 0.663667
vt 0.991303 0.682615
vt 0.991247 0.702349
vt 0.991128 0.722520
vt 0.990988 0.742682
vt 0.990863 0.762395
vt 0.990779 0.781316
vt 0.990760 0.799448
vt 0.990822 0.817178
vt 0.991297 0.835969
vt 0.994171 0.455149
vt 0.993799 0.474183
vt 0.993856 0.493254
vt 0.993864 0.512972
vt 0.993832 0.533081
vt 0.993774 0.553178
vt 0.993726 0.572864
vt 0.993720 0.591825
vt 0.993762 0.610055
vt 0.993840 0.627831
vt 0.993926 0.645609
vt 0.993985 0.663841
vt 0.993987 0.682800
vt 0.993924 0.702467
vt 0.993814 0.722527
vt 0.993675 0.742572
vt 0.993547 0.762205
vt 0.993474 0.781115
vt 0.993465 0.799307
vt 0.993523 0.817128
vt 0.994197 0.835531
vt 0.997076 0.455796
vt 0.996604 0.474400
vt 0.996589 0.493436
vt 0.996579 0.513079
vt 0.996538 0.533069
vt 0.996488 0.553043
vt 0.996458 0.572643
vt 0.996471 0.591593
vt 0.996530 0.609891
vt 0.996615 0.627791
vt 0.996692 0.645700
vt 0.996733 0.664020
vt 0.996714 0.682985
vt 0.996633 0.702583
vt 0.996514 0.722526
vt 0.996382 0.742448
vt 0.996273 0.761996
vt 0.996220 0.780892
vt 0.996229 0.799146
vt 0.996309 0.817054
vt 0.997026 0.835095
vt 0.999983 0.456105
vt 0.999541 0.474514
vt 0.999536 0.493515
vt 0.999536 0.513127
vt 0.999497 0.533072
vt 0.999441 0.552996
vt 0.999394 0.572560
vt 0.999388 0.591501
vt 0.999433 0.609823
vt 0.999513 0.627772
vt 0.999600 0.645735
vt 0.999657 0.664094
vt 0.999654 0.683068
vt 0.999585 0.702642
vt 0.999465 0.722539
vt 0.999327 0.742413
vt 0.999201 0.761924
vt 0.999129 0.780809
vt 0.999124 0.799078
vt 0.999241 0.816980
vt 0.999968 0.834839
vt 0.756190 0.879442
vt 0.776808 0.878916
vt 0.777063 0.881900
vt 0.756231 0.882416
vt 0.735544 0.879449
vt 0.735547 0.882384
vt 0.714901 0.879413
vt 0.714901 0.882346
vt 0.694259 0.879372
vt 0.694258 0.882305
vt 0.673614 0.879333
vt 0.673614 0.882267
vt 0.652967 0.879301
vt 0.652969 0.882235
vt 0.632321 0.879279
vt 0.632322 0.882213
vt 0.611672 0.879269
vt 0.611677 0.882202
vt 0.591026 0.879269
vt 0.591032 0.882202
vt 0.570382 0.879279
vt 0.570390 0.882213
vt 0.549741 0.879301
vt 0.549751 0.882232
vt 0.529107 0.879326
vt 0.529116 0.882258
vt 0.508477 0.879355
vt 0.508486 0.882285
vt 0.487854 0.879384
vt 0.487863 0.882314
vt 0.467239 0.879411
vt 0.467247 0.882340
vt 0.446631 0.879435
vt 0.446638 0.882364
vt 0.426025 0.879458
vt 0.426031 0.882385
vt 0.405419 0.879475
vt 0.405422 0.882403
vt 0.384813 0.879435
vt 0.384783 0.882370
vt 0.364177 0.878975
vt 0.363935 0.881890
vt 0.777557 0.884756
vt 0.756275 0.885238
vt 0.735566 0.885194
vt 0.714918 0.885155
vt 0.694274 0.885114
vt 0.673631 0.885076
vt 0.652987 0.885044
vt 0.632342 0.885023
vt 0.611698 0.885011
vt 0.591055 0.885011
vt 0.570412 0.885021
vt 0.549775 0.885041
vt 0.529140 0.885065
vt 0.508512 0.885093
vt 0.487888 0.885120
vt 0.467273 0.885146
vt 0.446664 0.885168
vt 0.426055 0.885190
vt 0.405442 0.885208
vt 0.384772 0.885224
vt 0.363444 0.884818
vt 0.778055 0.887680
vt 0.756301 0.887994
vt 0.735574 0.887962
vt 0.714926 0.887923
vt 0.694282 0.887882
vt 0.673640 0.887844
vt 0.652996 0.887812
vt 0.632352 0.887789
vt 0.611710 0.887779
vt 0.591068 0.887779
vt 0.570428 0.887788
vt 0.549791 0.887807
vt 0.529157 0.887832
vt 0.508528 0.887858
vt 0.487904 0.887885
vt 0.467289 0.887909
vt 0.446679 0.887930
vt 0.426072 0.887951
vt 0.405455 0.887973
vt 0.384763 0.888015
vt 0.362974 0.887815
vt 0.778281 0.890751
vt 0.756295 0.890782
vt 0.735560 0.890763
vt 0.714911 0.890721
vt 0.694267 0.890680
vt 0.673625 0.890642
vt 0.652983 0.890610
vt 0.632340 0.890589
vt 0.611700 0.890579
vt 0.591059 0.890577
vt 0.570420 0.890588
vt 0.549784 0.890606
vt 0.529151 0.890628
vt 0.508522 0.890654
vt 0.487898 0.890680
vt 0.467282 0.890704
vt 0.446673 0.890725
vt 0.426064 0.890747
vt 0.405449 0.890768
vt 0.384751 0.890813
vt 0.362798 0.890912
vt 0.778096 0.893852
vt 0.756272 0.893584
vt 0.735545 0.893565
vt 0.714895 0.893521
vt 0.694252 0.893480
vt 0.673611 0.893442
vt 0.652970 0.893410
vt 0.632330 0.893387
vt 0.611689 0.893377
vt 0.591050 0.893377
vt 0.570412 0.893386
vt 0.549778 0.893404
vt 0.529145 0.893427
vt 0.508516 0.893451
vt 0.487892 0.893477
vt 0.467276 0.893499
vt 0.446665 0.893519
vt 0.426058 0.893542
vt 0.405445 0.893565
vt 0.384753 0.893596
vt 0.363033 0.893977
vt 0.777616 0.896851
vt 0.756255 0.896380
vt 0.735551 0.896333
vt 0.714901 0.896289
vt 0.694261 0.896248
vt 0.673620 0.896208
vt 0.652979 0.896177
vt 0.632340 0.896155
vt 0.611701 0.896143
vt 0.591064 0.896143
vt 0.570428 0.896152
vt 0.549793 0.896169
vt 0.529161 0.896192
vt 0.508533 0.896217
vt 0.487909 0.896242
vt 0.467291 0.896263
vt 0.446682 0.896283
vt 0.426075 0.896304
vt 0.405461 0.896328
vt 0.384786 0.896348
vt 0.363541 0.896895
vt 0.777114 0.899782
vt 0.756236 0.899238
vt 0.735563 0.899143
vt 0.714918 0.899097
vt 0.694276 0.899055
vt 0.673637 0.899017
vt 0.652998 0.898985
vt 0.632360 0.898963
vt 0.611722 0.898952
vt 0.591086 0.898951
vt 0.570450 0.898960
vt 0.549817 0.898976
vt 0.529186 0.898999
vt 0.508557 0.899023
vt 0.487933 0.899046
vt 0.467317 0.899067
vt 0.446706 0.899087
vt 0.426099 0.899108
vt 0.405490 0.899134
vt 0.384839 0.899166
vt 0.364042 0.899744
vt 0.776864 0.902702
vt 0.756196 0.902178
vt 0.735557 0.902076
vt 0.714917 0.902031
vt 0.694276 0.901988
vt 0.673635 0.901950
vt 0.652998 0.901918
vt 0.632362 0.901896
vt 0.611727 0.901884
vt 0.591091 0.901882
vt 0.570458 0.901891
vt 0.549825 0.901908
vt 0.529193 0.901931
vt 0.508566 0.901953
vt 0.487941 0.901976
vt 0.467324 0.901996
vt 0.446714 0.902015
vt 0.426108 0.902035
vt 0.405502 0.902062
vt 0.384890 0.902135
vt 0.364306 0.902724
vn 0.809979 0.018809 -0.586157
vn 0.310446 -0.022838 -0.950317
vn 0.287238 0.047871 -0.956662
vn 0.799604 0.032760 -0.599633
vn -0.306657 -0.071986 -0.949094
vn -0.327349 0.067615 -0.942481
vn -0.803355 -0.111599 -0.584950
vn -0.814891 0.082101 -0.573771
vn -0.991947 -0.126652 0.000000
vn -0.996181 0.087317 -0.000134
vn -0.803355 -0.111599 0.584950
vn -0.814906 0.082223 0.573732
vn -0.310317 -0.077363 0.947480
vn -0.336367 0.061464 0.939723
vn 0.293126 -0.047951 0.954870
vn 0.242379 0.018470 0.970006
vn 0.810656 -0.007395 0.585477
vn 0.795503 -0.007034 0.605909
vn 0.999634 0.026927 -0.002798
vn 0.999848 0.017437 0.000173
vn 0.398620 0.877024 -0.268197
vn 0.143955 0.893307 -0.425769
vn 0.000000 1.000000 0.000000
vn -0.118359 0.904401 -0.409938
vn -0.319821 0.916582 -0.239981
vn -0.390960 0.920408 -0.000000
vn -0.319821 0.916582 0.239982
vn -0.118359 0.904401 0.409939
vn 0.139989 0.894620 0.424334
vn 0.397492 0.878847 0.263870
vn 0.496686 0.867930 0.000177
vn 0.272662 -0.485219 -0.830794
vn 0.733584 -0.461884 -0.498515
vn 0.810023 -0.037449 -0.585202
vn 0.308158 -0.036188 -0.950647
vn -0.272422 -0.485390 -0.830773
vn -0.308370 -0.035784 -0.950593
vn -0.756492 -0.449826 -0.474739
vn -0.811206 -0.035748 -0.583668
vn -0.914372 -0.404874 -0.001129
vn -0.999325 -0.036726 0.000000
vn -0.758074 -0.452772 0.469385
vn -0.810664 -0.035060 0.584461
vn -0.242509 -0.479588 0.843318
vn -0.303165 -0.032056 0.952399
vn 0.272070 -0.457455 0.846589
vn 0.306075 -0.031815 0.951476
vn 0.726608 -0.455954 0.513952
vn 0.808138 -0.035648 0.587914
vn 0.899208 -0.437522 -0.000455
vn 0.999184 -0.040380 0.000000
vn 0.805548 0.006067 -0.592499
vn 0.300307 -0.002108 -0.953840
vn -0.314462 -0.009927 -0.949218
vn -0.811448 -0.014204 -0.584252
vn -0.999918 -0.012745 -0.001108
vn -0.811609 -0.006759 0.584162
vn -0.311574 0.002122 0.950220
vn 0.302239 0.009635 0.953184
vn 0.806655 0.012947 0.590880
vn 0.999937 0.011195 -0.001304
vn 0.651743 0.544307 -0.528168
vn 0.242200 0.470384 -0.848574
vn -0.275556 0.487020 -0.828783
vn -0.677503 0.545548 -0.493322
vn -0.820468 0.571692 -0.000418
vn -0.677064 0.547160 0.492138
vn -0.280791 0.508800 0.813805
vn 0.219848 0.527218 0.820797
vn 0.639582 0.593453 0.488619
vn 0.791005 0.611808 0.001555
vn 0.304109 -0.907361 -0.290196
vn 0.355291 -0.934756 0.000293
vn 0.355292 -0.934755 0.000695
vn 0.298649 -0.907964 -0.293957
vn 0.309593 -0.905532 0.290112
vn 0.302725 -0.906107 0.295513
vn 0.167754 -0.904158 0.392882
vn 0.163644 -0.903720 0.395615
vn 0.074157 -0.858353 0.507672
vn 0.073964 -0.854916 0.513467
vn -0.143012 -0.906022 0.398337
vn -0.135983 -0.904430 0.404370
vn -0.345863 -0.923293 -0.167062
vn -0.354769 -0.927010 -0.121617
vn -0.166958 -0.879587 -0.445480
vn -0.164382 -0.879833 -0.445951
vn -0.034018 -0.889822 -0.455038
vn -0.036308 -0.889517 -0.455458
vn 0.128488 -0.911728 -0.390182
vn 0.128149 -0.911705 -0.390349
vn 0.791106 -0.180448 -0.584458
vn 0.297603 -0.192624 -0.935055
vn 0.307587 -0.096077 -0.946657
vn 0.805274 -0.096077 -0.585066
vn -0.309510 -0.207638 -0.927949
vn -0.307588 -0.096077 -0.946657
vn -0.790522 -0.221389 -0.571019
vn -0.805274 -0.096077 -0.585066
vn -0.973166 -0.230083 -0.003106
vn -0.995374 -0.096077 0.000000
vn -0.788681 -0.226579 0.571528
vn -0.805274 -0.096077 0.585066
vn -0.305328 -0.208064 0.929239
vn -0.307588 -0.096077 0.946657
vn 0.293807 -0.191287 0.936529
vn 0.307587 -0.096077 0.946657
vn 0.790357 -0.182931 0.584698
vn 0.805274 -0.096077 0.585066
vn 0.983836 -0.179059 -0.002145
vn 0.995374 -0.096077 0.000000
vn 0.810176 -0.058029 -0.583307
vn 0.314661 -0.076752 -0.946096
vn -0.300968 -0.100319 -0.948343
vn -0.800744 -0.119685 -0.586928
vn -0.991884 -0.127144 0.000000
vn -0.800744 -0.119685 0.586928
vn -0.300968 -0.100319 0.948343
vn 0.311260 -0.081001 0.946866
vn 0.812379 -0.062531 0.579767
vn 0.998665 -0.051638 0.001289
vn 0.799901 -0.029043 -0.599429
vn 0.346221 -0.002967 -0.938148
vn 0.300608 0.209289 -0.930501
vn 0.776101 0.262151 -0.573537
vn -0.269131 0.057116 -0.961408
vn -0.305687 0.144443 -0.941112
vn -0.772560 0.087955 -0.628820
vn -0.805875 0.084371 -0.586043
vn -0.996757 0.080467 0.000199
vn -0.998271 0.058252 0.007902
vn -0.762353 0.068072 0.643572
vn -0.808334 0.079612 0.583316
vn -0.248922 -0.008587 0.968485
vn -0.308361 0.131800 0.942095
vn 0.325934 -0.061844 0.943368
vn 0.302928 0.192273 0.933416
vn 0.790383 -0.050482 0.610529
vn 0.777156 0.251696 0.576782
vn 0.999962 -0.008758 0.000033
vn 0.959803 0.280670 0.001777
vn 0.873044 0.487537 0.010108
vn 0.791749 0.363932 -0.490599
vn 0.758367 0.410741 0.506134
vn 0.267345 0.131541 0.954580
vn -0.304296 -0.058203 0.950798
vn -0.806158 -0.074230 0.587025
vn -0.998896 -0.046967 0.000822
vn -0.806635 -0.079034 -0.585742
vn -0.284411 -0.116807 -0.951560
vn 0.312311 0.003985 -0.949972
vn 0.729943 -0.151818 -0.666434
vn 0.258642 -0.055287 -0.964390
vn -0.353732 0.106808 -0.929229
vn -0.834556 0.192463 -0.516212
vn -0.978372 0.202854 0.040489
vn -0.828413 0.113737 0.548449
vn -0.338502 0.007652 0.940935
vn 0.252185 -0.149442 0.956070
vn 0.702228 -0.188837 0.686452
vn 0.997296 -0.073495 0.000028
vn 0.953505 0.301376 -0.000030
vn -0.658007 -0.753011 -0.001311
vn -0.683693 -0.460098 0.566458
vn -0.786680 -0.617361 -0.000695
vn -0.652326 -0.471592 -0.593357
vn -0.903960 0.083686 0.419349
vn 0.877236 -0.056566 -0.476715
vn 0.466323 -0.227051 -0.854980
vn 0.893506 -0.118738 -0.433069
vn -0.983654 0.155277 0.091179
vn 0.986225 -0.148882 -0.072070
vn 0.980101 -0.165433 -0.109699
vn -0.928684 0.190657 -0.318114
vn 0.900523 -0.161598 0.403664
vn 0.922561 -0.221134 0.316197
vn 0.385820 -0.395774 0.833370
vn 0.753435 -0.449983 -0.479428
vn 0.914297 -0.405042 -0.001318
vn 0.755424 -0.444726 0.481199
vn 0.286036 -0.488548 0.824321
vn -0.243782 -0.518691 0.819469
vn -0.799182 -0.436825 0.412906
vn -0.931586 -0.363512 -0.002659
vn -0.785487 -0.433265 -0.441919
vn -0.267814 -0.505443 -0.820246
vn 0.270297 -0.505060 -0.819667
vn 0.038342 0.999262 0.002487
vn 0.095295 0.995437 0.004853
vn 0.094981 0.995469 0.004447
vn 0.040591 0.999174 0.001771
vn 0.067480 0.997406 0.025046
vn 0.066758 0.997452 0.025149
vn 0.011209 0.999911 0.007279
vn 0.011525 0.999903 0.007811
vn -0.011776 0.999930 0.001296
vn -0.012054 0.999926 0.001779
vn -0.060482 0.997881 0.023988
vn -0.062471 0.997753 0.024214
vn -0.100424 0.994945 0.000152
vn -0.100420 0.994945 -0.000229
vn -0.058613 0.998073 -0.020378
vn -0.059803 0.997998 -0.020607
vn -0.009966 0.999732 0.020918
vn -0.010341 0.999757 0.019484
vn -0.001494 0.999441 0.033415
vn -0.001478 0.999461 0.032804
vn -0.686823 -0.390183 0.613214
vn -0.911737 -0.410774 -0.000365
vn -0.647884 -0.401164 -0.647545
vn -0.229478 -0.446953 -0.864623
vn -0.224559 -0.447488 -0.865638
vn 0.389167 -0.434426 -0.812295
vn 0.793839 -0.333090 -0.508794
vn 0.945326 -0.310237 -0.100559
vn 0.806391 -0.389687 0.444835
vn 0.353852 -0.444073 0.823157
vn -0.276545 -0.431222 0.858819
vn -0.271529 -0.431407 0.860326
vn 0.756945 0.028375 -0.652862
vn 0.198380 -0.024333 -0.979823
vn -0.305044 -0.053050 -0.950860
vn -0.803230 -0.068476 -0.591720
vn -0.998327 -0.057801 -0.001519
vn -0.808362 -0.025610 0.588128
vn -0.310781 0.017044 0.950329
vn 0.209924 0.049145 0.976482
vn 0.764388 0.054225 0.642472
vn 0.997812 0.066035 -0.003402
vn 0.321074 -0.939514 -0.119270
vn 0.816561 0.009075 -0.577188
vn 0.995323 0.096485 0.004767
vn 0.375370 -0.925483 0.050788
vn 0.176924 -0.958158 -0.225014
vn 0.326063 -0.100445 -0.939997
vn -0.002803 -0.974321 -0.225145
vn -0.258356 -0.191916 -0.946795
vn -0.148865 -0.981719 -0.118607
vn -0.762606 -0.244301 -0.598957
vn -0.204302 -0.977438 0.053634
vn -0.975979 -0.216618 0.023293
vn -0.147839 -0.963168 0.224615
vn -0.767757 -0.108190 0.631541
vn -0.002143 -0.944476 0.328573
vn -0.272156 0.010841 0.962192
vn 0.176365 -0.928531 0.326690
vn 0.312569 0.096916 0.944938
vn 0.320136 -0.921310 0.220683
vn 0.802028 0.129567 0.583064
vn 0.090705 -0.994398 0.054272
vn 0.758633 0.013800 -0.651373
vn 0.801252 0.034125 -0.597354
vn 0.297204 -0.034543 -0.954189
vn -0.220964 -0.083476 -0.971703
vn -0.753560 -0.073681 -0.653236
vn -0.999529 -0.030674 0.000846
vn -0.760619 -0.000526 0.649199
vn -0.232711 0.040496 0.971703
vn 0.302566 0.088868 0.948976
vn 0.763978 0.086174 0.639462
vn 0.803619 0.111639 0.584580
vn 0.998491 0.054798 -0.003503
vn 0.995853 0.090760 -0.006332
vn -0.611113 0.528564 -0.589204
vn -0.502159 -0.122120 -0.856109
vn -0.999847 -0.017495 0.000684
vn -0.666532 -0.291815 -0.685988
vn -0.898006 -0.439733 0.014848
vn -0.694003 -0.148955 0.704395
vn 0.752669 -0.321888 -0.574350
vn 0.608460 0.002625 -0.793580
vn 0.999923 0.012151 -0.002631
vn 0.779686 0.625956 -0.016408
vn 0.700614 0.398608 0.591821
vn 0.607490 0.063719 0.791768
vn 0.752245 -0.280734 0.596084
vn 0.856382 -0.515503 0.029440
vn 0.701057 0.348445 -0.622178
vn -0.596065 0.801780 -0.043089
vn -0.529561 -0.654860 -0.539188
vn -0.503888 -0.862522 0.046393
vn -0.600973 0.610779 0.515539
vn -0.539992 -0.572554 0.616920
vn -0.504913 0.024895 0.862811
vn 0.753253 -0.429463 -0.498167
vn 0.651356 0.566457 -0.504838
vn 0.821280 0.570499 -0.005498
vn 0.922625 -0.385536 0.011191
vn 0.292269 -0.512665 -0.807312
vn 0.240813 0.518237 -0.820634
vn -0.221370 -0.542825 -0.810146
vn -0.291791 0.515386 -0.805751
vn -0.606300 -0.649352 -0.459067
vn -0.738887 0.420441 -0.526570
vn -0.800306 -0.598284 0.039587
vn -0.883208 0.468830 -0.011911
vn -0.672060 -0.552980 0.492493
vn -0.715982 0.448201 0.535243
vn -0.248934 -0.521710 0.815997
vn -0.278087 0.424604 0.861614
vn 0.313222 -0.461685 0.829903
vn 0.232950 0.457940 0.857919
vn 0.763169 -0.378785 0.523541
vn 0.650877 0.550189 0.523116
vn 0.780754 -0.227697 -0.581873
vn 0.312948 -0.262703 -0.912716
vn -0.287368 -0.309892 -0.906304
vn -0.749281 -0.351140 -0.561497
vn -0.920212 -0.390955 -0.019102
vn -0.733227 -0.380282 0.563705
vn -0.264928 -0.307249 0.914008
vn 0.289833 -0.258902 0.921394
vn 0.777633 -0.239656 0.581251
vn 0.973657 -0.227668 -0.012599
vn 0.273409 0.351237 -0.895477
vn 0.750665 0.381683 -0.539278
vn -0.303065 0.299676 -0.904625
vn -0.795696 0.245753 -0.553601
vn -0.977682 0.208355 0.026961
vn -0.808803 0.226209 0.542833
vn -0.332153 0.308283 0.891424
vn 0.292423 0.369237 0.882130
vn 0.757156 0.371179 0.537531
vn 0.927227 0.374435 0.006996
vn 0.645300 -0.549371 -0.530829
vn 0.804023 0.291776 -0.518087
vn 0.982103 0.188346 -0.000485
vn 0.766680 -0.642022 0.003036
vn 0.254457 -0.456322 -0.852656
vn 0.296444 0.407275 -0.863856
vn 0.799353 0.244408 0.548907
vn 0.636688 -0.591044 0.495272
vn 0.218600 0.392274 0.893496
vn 0.172805 -0.525355 0.833151
vn -0.314817 0.439613 0.841208
vn -0.253381 -0.499356 0.828518
vn -0.759089 0.376563 0.531022
vn -0.662898 -0.553536 0.504147
vn -0.929216 0.369289 -0.013559
vn -0.849604 -0.527086 -0.018785
vn -0.766120 0.349019 -0.539672
vn -0.689758 -0.502709 -0.521073
vn -0.304370 0.415206 -0.857300
vn -0.255574 -0.441956 -0.859859
vn 0.809391 -0.058262 -0.584373
vn 0.995275 -0.097088 0.001377
vn 0.785385 -0.085731 0.613042
vn 0.269710 -0.002483 0.962938
vn -0.279493 0.113573 0.953407
vn -0.780985 0.206295 0.589495
vn -0.971341 0.237690 -0.000755
vn -0.781138 0.205600 -0.589536
vn -0.265504 0.117902 -0.956874
vn 0.336811 0.018478 -0.941391
vn 0.943031 -0.331844 0.023940
vn 0.754017 -0.270322 -0.598652
vn 0.790063 -0.292421 -0.538786
vn 0.941929 -0.335770 -0.005358
vn 0.762087 -0.202418 0.615021
vn 0.819640 -0.229742 0.524795
vn 0.228348 -0.102756 0.968142
vn 0.211812 -0.103271 0.971839
vn -0.295328 -0.168554 0.940410
vn -0.374158 -0.187127 0.908289
vn -0.737358 -0.311965 0.599151
vn -0.777909 -0.331546 0.533794
vn -0.914612 -0.404314 0.003908
vn -0.914604 -0.404344 0.002367
vn -0.734048 -0.318462 -0.599796
vn -0.775646 -0.339591 -0.532026
vn -0.261215 -0.136429 -0.955591
vn -0.350111 -0.165584 -0.921957
vn 0.284658 -0.105817 -0.952771
vn 0.283893 -0.105667 -0.953016
vn 0.178357 0.983643 -0.025209
vn 0.284712 0.958558 0.010250
vn -0.288668 -0.957379 -0.009814
vn -0.180523 -0.983258 0.024816
vn -0.026105 -0.999065 0.034467
vn 0.024765 0.999256 -0.029566
vn 0.216434 0.974587 0.057764
vn -0.220399 -0.973953 -0.053298
vn 0.036892 0.996617 0.073441
vn -0.036802 -0.996692 -0.072465
vn -0.071161 0.996478 0.044368
vn 0.068950 -0.996582 -0.045510
vn -0.112027 0.991090 0.072040
vn 0.107260 -0.991858 -0.068646
vn -0.111518 0.993689 0.012121
vn 0.112116 -0.993689 -0.003427
vn -0.093911 0.993928 -0.057335
vn 0.098774 -0.993244 0.060913
vn -0.055253 0.998221 -0.022392
vn 0.057363 -0.998065 0.023998
vn -0.104594 0.994509 -0.003393
vn -0.150333 0.988244 -0.027800
vn 0.144905 -0.989151 0.024126
vn 0.099681 -0.995017 -0.002198
vn 0.010783 -0.999791 0.017379
vn -0.009583 0.999699 -0.022571
vn 0.052582 -0.997816 0.039987
vn -0.056968 0.997569 -0.040133
vn 0.122592 -0.987467 0.099397
vn -0.132783 0.985671 -0.104028
vn 0.081476 -0.994752 0.061887
vn -0.085527 0.993993 -0.068292
vn 0.023461 -0.996493 -0.080321
vn -0.029402 0.996765 0.074802
vn -0.003517 -0.993314 -0.115392
vn -0.000485 0.994433 0.105369
vn 0.066071 -0.995727 -0.064515
vn -0.067315 0.996170 0.055807
vn 0.138311 -0.990310 0.012477
vn -0.142764 0.989592 -0.018087
vn -0.778275 0.092021 0.621144
vn -0.936016 0.110673 0.334103
vn -0.556637 0.798877 0.227929
vn -0.456909 0.778801 0.429771
vn -0.550513 0.065092 0.832285
vn -0.305746 0.751061 0.585172
vn -0.283515 0.033523 0.958382
vn -0.120315 0.721443 0.681941
vn 0.000000 0.000001 1.000000
vn 0.082132 0.694634 0.714660
vn 0.283516 -0.033522 0.958381
vn 0.285251 0.673495 0.681936
vn 0.550517 -0.065092 0.832283
vn 0.472477 0.659051 0.585165
vn 0.778278 -0.092021 0.621141
vn 0.625937 0.650768 0.429771
vn 0.936016 -0.110672 0.334106
vn 0.727597 0.647031 0.227931
vn 0.993082 -0.117420 0.000001
vn 0.763297 0.646047 0.000001
vn 0.936015 -0.110672 -0.334107
vn 0.727597 0.647032 -0.227929
vn 0.778275 -0.092021 -0.621144
vn 0.625937 0.650768 -0.429772
vn 0.550515 -0.065093 -0.832284
vn 0.472477 0.659051 -0.585165
vn 0.283517 -0.033525 -0.958381
vn 0.285249 0.673492 -0.681940
vn 0.000000 0.000000 -1.000000
vn 0.082131 0.694630 -0.714664
vn -0.283516 0.033524 -0.958381
vn -0.120315 0.721440 -0.681944
vn -0.550513 0.065092 -0.832285
vn -0.305745 0.751058 -0.585176
vn -0.778274 0.092021 -0.621146
vn -0.456908 0.778800 -0.429773
vn -0.936015 0.110672 -0.334107
vn -0.556636 0.798876 -0.227931
vn -0.993082 0.117420 -0.000001
vn -0.591580 0.806247 0.000000
vn 0.163152 0.986431 -0.018311
vn 0.153663 0.987581 -0.032728
vn 0.141459 0.989068 -0.041650
vn 0.129077 0.990573 -0.045871
vn 0.117289 0.991984 -0.047018
vn 0.105497 0.993361 -0.045870
vn 0.093105 0.994785 -0.041656
vn 0.080890 0.996185 -0.032741
vn 0.071397 0.997280 -0.018317
vn 0.067749 0.997702 0.000001
vn 0.071397 0.997280 0.018318
vn 0.080890 0.996185 0.032743
vn 0.093105 0.994784 0.041665
vn 0.105497 0.993361 0.045872
vn 0.117289 0.991984 0.047012
vn 0.129077 0.990573 0.045869
vn 0.141459 0.989068 0.041650
vn 0.153663 0.987581 0.032731
vn 0.163151 0.986431 0.018315
vn 0.166799 0.985991 0.000001
vn 0.767635 0.592552 -0.244169
vn 0.656611 0.598886 -0.458473
vn 0.491310 0.610293 -0.621415
vn 0.291944 0.627486 -0.721824
vn 0.076915 0.650519 -0.755585
vn -0.137555 0.678272 -0.721821
vn -0.335434 0.708050 -0.621410
vn -0.498839 0.735504 -0.458469
vn -0.608276 0.755238 -0.244165
vn -0.647028 0.762466 0.000000
vn -0.608276 0.755237 0.244167
vn -0.498838 0.735503 0.458471
vn -0.335434 0.708049 0.621410
vn -0.137555 0.678273 0.721820
vn 0.076916 0.650522 0.755583
vn 0.291943 0.627484 0.721827
vn 0.491307 0.610289 0.621421
vn 0.656611 0.598886 0.458474
vn 0.767634 0.592553 0.244168
vn 0.807006 0.590544 0.000001
vn 0.937257 -0.110819 -0.330559
vn 0.781805 -0.092438 -0.616633
vn 0.554941 -0.065615 -0.829298
vn 0.286509 -0.033875 -0.957478
vn 0.000000 0.000002 -1.000000
vn -0.286507 0.033877 -0.957479
vn -0.554941 0.065615 -0.829298
vn -0.781808 0.092438 -0.616629
vn -0.937258 0.110819 -0.330555
vn -0.993082 0.117419 0.000000
vn -0.937257 0.110819 0.330558
vn -0.781807 0.092438 0.616630
vn -0.554942 0.065614 0.829298
vn -0.286508 0.033875 0.957479
vn -0.000000 -0.000001 1.000000
vn 0.286506 -0.033876 0.957479
vn 0.554939 -0.065614 0.829299
vn 0.781807 -0.092438 0.616630
vn 0.937258 -0.110819 0.330556
vn 0.993082 -0.117419 0.000000
vn 0.608276 -0.755236 -0.244168
vn 0.498838 -0.735505 -0.458469
vn 0.335435 -0.708052 -0.621406
vn 0.137556 -0.678275 -0.721818
vn -0.076916 -0.650521 -0.755583
vn -0.291942 -0.627482 -0.721828
vn -0.491308 -0.610290 -0.621420
vn -0.656612 -0.598884 -0.458474
vn -0.767635 -0.592551 -0.244170
vn -0.807006 -0.590544 -0.000000
vn -0.767635 -0.592551 0.244171
vn -0.656611 -0.598884 0.458476
vn -0.491309 -0.610292 0.621417
vn -0.291945 -0.627486 0.721824
vn -0.076916 -0.650521 0.755584
vn 0.137555 -0.678273 0.721821
vn 0.335435 -0.708051 0.621408
vn 0.498839 -0.735505 0.458468
vn 0.608276 -0.755236 0.244168
vn 0.647029 -0.762465 0.000002
vn -0.071399 -0.997280 -0.018313
vn -0.080894 -0.996185 -0.032731
vn -0.093107 -0.994785 -0.041644
vn -0.105497 -0.993361 -0.045869
vn -0.117289 -0.991984 -0.047020
vn -0.129077 -0.990573 -0.045872
vn -0.141459 -0.989068 -0.041653
vn -0.153663 -0.987581 -0.032727
vn -0.163151 -0.986431 -0.018313
vn -0.166799 -0.985991 -0.000000
vn -0.163151 -0.986431 0.018315
vn -0.153663 -0.987581 0.032734
vn -0.141459 -0.989068 0.041646
vn -0.129077 -0.990573 0.045863
vn -0.117289 -0.991984 0.047016
vn -0.105497 -0.993361 0.045865
vn -0.093106 -0.994785 0.041650
vn -0.080890 -0.996185 0.032735
vn -0.071397 -0.997280 0.018314
vn -0.067750 -0.997702 0.000002
vn -0.727597 -0.647031 0.227932
vn -0.625937 -0.650768 0.429772
vn -0.472475 -0.659048 0.585170
vn -0.285249 -0.673492 0.681940
vn -0.082131 -0.694631 0.714662
vn 0.120314 -0.721439 0.681946
vn 0.305745 -0.751061 0.585173
vn 0.456908 -0.778802 0.429770
vn 0.556635 -0.798877 0.227931
vn 0.591580 -0.806247 0.000000
vn 0.556636 -0.798876 -0.227931
vn 0.456909 -0.778802 -0.429770
vn 0.305745 -0.751058 -0.585177
vn 0.120316 -0.721440 -0.681945
vn -0.082132 -0.694634 -0.714659
vn -0.285249 -0.673491 -0.681941
vn -0.472475 -0.659047 -0.585171
vn -0.625936 -0.650769 -0.429773
vn -0.727595 -0.647033 -0.227932
vn -0.763296 -0.646049 -0.000001
vn -0.809016 -0.000000 0.587787
vn -0.951057 -0.000000 0.309017
vn -0.654342 0.725696 0.212609
vn -0.556617 0.725696 0.404404
vn -0.587785 -0.000000 0.809017
vn -0.404406 0.725696 0.556616
vn -0.309018 -0.000000 0.951056
vn -0.212609 0.725697 0.654341
vn -0.000000 0.000000 1.000000
vn -0.000000 0.725698 0.688013
vn 0.309016 0.000000 0.951057
vn 0.212609 0.725694 0.654344
vn 0.587783 0.000000 0.809018
vn 0.404406 0.725693 0.556620
vn 0.809019 -0.000000 0.587783
vn 0.556617 0.725695 0.404407
vn 0.951058 0.000000 0.309013
vn 0.654342 0.725696 0.212610
vn 1.000000 0.000000 -0.000001
vn 0.688016 0.725696 -0.000001
vn 0.951056 -0.000000 -0.309017
vn 0.654342 0.725696 -0.212610
vn 0.809016 -0.000000 -0.587787
vn 0.556617 0.725695 -0.404407
vn 0.587782 -0.000000 -0.809019
vn 0.404406 0.725694 -0.556618
vn 0.309016 -0.000000 -0.951057
vn 0.212609 0.725696 -0.654341
vn -0.000000 -0.000001 -1.000000
vn -0.000000 0.725696 -0.688015
vn -0.309018 -0.000001 -0.951056
vn -0.212609 0.725697 -0.654340
vn -0.587788 -0.000000 -0.809015
vn -0.404408 0.725696 -0.556614
vn -0.809018 0.000000 -0.587783
vn -0.556617 0.725695 -0.404407
vn -0.951058 0.000000 -0.309013
vn -0.654342 0.725696 -0.212609
vn -1.000000 0.000000 0.000000
vn -0.688016 0.725695 0.000001
vn 0.044409 0.998909 -0.014428
vn 0.037776 0.998909 -0.027448
vn 0.027446 0.998909 -0.037781
vn 0.014429 0.998909 -0.044413
vn -0.000000 0.998909 -0.046697
vn -0.014429 0.998909 -0.044410
vn -0.027446 0.998909 -0.037778
vn -0.037776 0.998909 -0.027447
vn -0.044409 0.998909 -0.014428
vn -0.046694 0.998909 0.000000
vn -0.044409 0.998909 0.014429
vn -0.037776 0.998909 0.027446
vn -0.027446 0.998909 0.037779
vn -0.014429 0.998909 0.044408
vn 0.000000 0.998909 0.046692
vn 0.014429 0.998909 0.044409
vn 0.027446 0.998909 0.037776
vn 0.037776 0.998909 0.027447
vn 0.044409 0.998909 0.014429
vn 0.046694 0.998909 0.000001
vn 0.697986 0.679252 -0.226789
vn 0.593741 0.679251 -0.431382
vn 0.431377 0.679250 -0.593746
vn 0.226789 0.679251 -0.697986
vn 0.000000 0.679252 -0.733905
vn -0.226789 0.679250 -0.697987
vn -0.431378 0.679250 -0.593744
vn -0.593741 0.679251 -0.431381
vn -0.697985 0.679251 -0.226791
vn -0.733906 0.679251 -0.000000
vn -0.697986 0.679252 0.226790
vn -0.593741 0.679252 0.431380
vn -0.431377 0.679251 0.593744
vn -0.226790 0.679253 0.697984
vn 0.000000 0.679253 0.733904
vn 0.226789 0.679252 0.697986
vn 0.431379 0.679252 0.593742
vn 0.593741 0.679251 0.431381
vn 0.697985 0.679252 0.226790
vn 0.733905 0.679252 0.000001
vn 0.951057 0.000000 -0.309016
vn 0.809016 -0.000000 -0.587786
vn 0.587784 -0.000001 -0.809018
vn 0.309019 -0.000000 -0.951056
vn 0.000000 -0.000000 -1.000000
vn -0.309017 -0.000000 -0.951057
vn -0.587785 0.000000 -0.809017
vn -0.809018 0.000000 -0.587784
vn -0.951057 -0.000000 -0.309017
vn -1.000000 -0.000000 -0.000001
vn -0.951057 0.000000 0.309017
vn -0.809016 -0.000000 0.587786
vn -0.587784 -0.000000 0.809018
vn -0.309017 -0.000001 0.951056
vn -0.000000 -0.000000 1.000000
vn 0.309017 0.000000 0.951057
vn 0.587784 -0.000000 0.809018
vn 0.809018 0.000000 0.587784
vn 0.951057 -0.000000 0.309017
vn 1.000000 0.000000 0.000001
vn 0.697986 -0.679252 -0.226789
vn 0.593742 -0.679253 -0.431376
vn 0.431379 -0.679252 -0.593742
vn 0.226789 -0.679251 -0.697987
vn 0.000000 -0.679254 -0.733904
vn -0.226789 -0.679252 -0.697985
vn -0.431378 -0.679252 -0.593743
vn -0.593742 -0.679253 -0.431376
vn -0.697986 -0.679252 -0.226787
vn -0.733906 -0.679252 -0.000001
vn -0.697985 -0.679252 0.226789
vn -0.593741 -0.679251 0.431381
vn -0.431377 -0.679249 0.593746
vn -0.226789 -0.679251 0.697987
vn -0.000000 -0.679254 0.733903
vn 0.226789 -0.679253 0.697985
vn 0.431378 -0.679252 0.593743
vn 0.593742 -0.679252 0.431378
vn 0.697986 -0.679252 0.226789
vn 0.733905 -0.679252 0.000001
vn 0.044409 -0.998909 -0.014430
vn 0.037776 -0.998909 -0.027445
vn 0.027446 -0.998909 -0.037777
vn 0.014429 -0.998909 -0.044414
vn -0.000000 -0.998909 -0.046699
vn -0.014429 -0.998909 -0.044414
vn -0.027447 -0.998909 -0.037780
vn -0.037777 -0.998909 -0.027445
vn -0.044409 -0.998909 -0.014428
vn -0.046694 -0.998909 0.000000
vn -0.044409 -0.998909 0.014430
vn -0.037776 -0.998909 0.027448
vn -0.027446 -0.998909 0.037784
vn -0.014429 -0.998909 0.044417
vn -0.000000 -0.998909 0.046697
vn 0.014430 -0.998909 0.044410
vn 0.027446 -0.998909 0.037775
vn 0.037776 -0.998909 0.027447
vn 0.044409 -0.998909 0.014430
vn 0.046694 -0.998909 -0.000001
vn -0.654342 -0.725696 0.212608
vn -0.556616 -0.725695 0.404408
vn -0.404406 -0.725695 0.556618
vn -0.212609 -0.725695 0.654343
vn -0.000000 -0.725694 0.688017
vn 0.212608 -0.725695 0.654343
vn 0.404406 -0.725694 0.556618
vn 0.556617 -0.725695 0.404405
vn 0.654342 -0.725696 0.212607
vn 0.688016 -0.725696 -0.000000
vn 0.654342 -0.725695 -0.212609
vn 0.556617 -0.725694 -0.404408
vn 0.404406 -0.725694 -0.556618
vn 0.212610 -0.725697 -0.654340
vn -0.000000 -0.725696 -0.688016
vn -0.212609 -0.725694 -0.654344
vn -0.404406 -0.725694 -0.556618
vn -0.556617 -0.725695 -0.404405
vn -0.654343 -0.725696 -0.212607
vn -0.688016 -0.725695 -0.000000
s 1
g Tocha_Corpo1
usemtl blinn1SG
f 83/1/1 84/2/2 72/3/3 63/4/4
f 84/2/2 85/5/5 71/6/6 72/3/3
f 85/5/5 86/7/7 70/8/8 71/6/6
f 86/7/7 87/9/9 69/10/10 70/8/8
f 87/9/9 88/11/11 68/12/12 69/10/10
f 88/11/11 89/13/13 67/14/14 68/12/12
f 89/13/13 90/15/15 66/16/16 67/14/14
f 90/15/15 91/17/17 65/18/18 66/16/16
f 91/17/17 92/19/19 64/20/20 65/18/18
f 92/21/19 83/1/1 63/4/4 64/22/20
s 2
usemtl blinn2SG
f 32/23/21 33/24/22 34/25/23
f 33/24/22 35/26/24 34/25/23
f 35/26/24 36/27/25 34/25/23
f 36/27/25 37/28/26 34/25/23
f 37/28/26 38/29/27 34/25/23
f 38/29/27 39/30/28 34/25/23
f 39/30/28 40/31/29 34/25/23
f 40/31/29 41/32/30 34/25/23
f 41/32/30 42/33/31 34/25/23
f 42/33/31 32/23/21 34/25/23
s 3
usemtl blinn5SG
f 150/34/32 141/35/33 21/36/34 22/37/35
f 149/38/36 150/34/32 22/37/35 23/39/37
f 148/40/38 149/38/36 23/39/37 24/41/39
f 147/42/40 148/40/38 24/41/39 25/43/41
f 146/44/42 147/42/40 25/43/41 26/45/43
f 145/46/44 146/44/42 26/45/43 27/47/45
f 144/48/46 145/46/44 27/47/45 28/49/47
f 143/50/48 144/48/46 28/49/47 29/51/49
f 142/52/50 143/50/48 29/51/49 30/53/51
f 141/35/33 142/54/50 30/55/51 21/36/34
usemtl blinn6SG
f 22/56/35 21/57/34 171/58/52 172/59/53
f 23/60/37 22/56/35 172/59/53 173/61/54
f 24/62/39 23/60/37 173/61/54 174/63/55
f 25/64/41 24/62/39 174/63/55 175/65/56
f 26/66/43 25/64/41 175/65/56 176/67/57
f 27/68/45 26/66/43 176/67/57 177/69/58
f 28/70/47 27/68/45 177/69/58 178/71/59
f 29/72/49 28/70/47 178/71/59 179/73/60
f 30/74/51 29/72/49 179/73/60 180/75/61
f 21/57/34 30/76/51 180/77/61 171/58/52
s 2
usemtl blinn2SG
f 11/78/62 12/79/63 33/24/22 32/23/21
f 12/79/63 13/80/64 35/26/24 33/24/22
f 13/80/64 14/81/65 36/27/25 35/26/24
f 14/81/65 15/82/66 37/28/26 36/27/25
f 15/82/66 16/83/67 38/29/27 37/28/26
f 16/83/67 17/84/68 39/30/28 38/29/27
f 17/84/68 18/85/69 40/31/29 39/30/28
f 18/85/69 19/86/70 41/32/30 40/31/29
f 19/86/70 20/87/71 42/33/31 41/32/30
f 20/87/71 11/78/62 32/23/21 42/33/31
s 4
usemtl blinn1SG
f 1/88/72 133/89/73 161/90/74 162/91/75
f 133/92/73 9/93/76 163/94/77 161/95/74
f 9/93/76 8/96/78 164/97/79 163/94/77
f 8/96/78 7/98/80 165/99/81 164/97/79
f 7/98/80 135/100/82 166/101/83 165/99/81
f 135/100/82 137/102/84 167/103/85 166/101/83
f 137/102/84 139/104/86 168/105/87 167/103/85
f 139/104/86 3/106/88 169/107/89 168/105/87
f 3/106/88 2/108/90 170/109/91 169/107/89
f 2/108/90 1/88/72 162/91/75 170/109/91
s 1
f 73/110/92 74/111/93 102/112/94 93/113/95
f 74/111/93 75/114/96 101/115/97 102/112/94
f 75/114/96 76/116/98 100/117/99 101/115/97
f 76/116/98 77/118/100 99/119/101 100/117/99
f 77/118/100 78/120/102 98/121/103 99/119/101
f 78/120/102 79/122/104 97/123/105 98/121/103
f 79/122/104 80/124/106 96/125/107 97/123/105
f 80/124/106 81/126/108 95/127/109 96/125/107
f 81/126/108 82/128/110 94/129/111 95/127/109
f 82/130/110 73/110/92 93/113/95 94/131/111
f 53/132/112 54/133/113 84/2/2 83/1/1
f 54/133/113 55/134/114 85/5/5 84/2/2
f 55/134/114 56/135/115 86/7/7 85/5/5
f 56/135/115 57/136/116 87/9/9 86/7/7
f 57/136/116 58/137/117 88/11/11 87/9/9
f 58/137/117 59/138/118 89/13/13 88/11/11
f 59/138/118 60/139/119 90/15/15 89/13/13
f 60/139/119 61/140/120 91/17/17 90/15/15
f 61/140/120 62/141/121 92/19/19 91/17/17
f 62/142/121 53/132/112 83/1/1 92/21/19
f 94/131/111 93/113/95 53/132/112 62/142/121
f 95/127/109 94/129/111 62/141/121 61/140/120
f 96/125/107 95/127/109 61/140/120 60/139/119
f 97/123/105 96/125/107 60/139/119 59/138/118
f 98/121/103 97/123/105 59/138/118 58/137/117
f 99/119/101 98/121/103 58/137/117 57/136/116
f 100/117/99 99/119/101 57/136/116 56/135/115
f 101/115/97 100/117/99 56/135/115 55/134/114
f 102/112/94 101/115/97 55/134/114 54/133/113
f 93/113/95 102/112/94 54/133/113 53/132/112
s 6
f 123/143/122 124/144/123 104/145/124 103/146/125
f 124/144/123 125/147/126 105/148/127 104/145/124
f 125/147/126 126/149/128 106/150/129 105/148/127
f 126/149/128 127/151/130 107/152/131 106/150/129
f 127/151/130 128/153/132 108/154/133 107/152/131
f 128/153/132 129/155/134 109/156/135 108/154/133
f 129/155/134 130/157/136 110/158/137 109/156/135
f 130/157/136 131/159/138 111/160/139 110/158/137
f 131/159/138 132/161/140 112/162/141 111/160/139
f 132/163/140 123/143/122 103/146/125 112/164/141
s 2
usemtl blinn2SG
f 114/165/142 113/166/143 11/78/62 20/87/71
f 115/167/144 114/165/142 20/87/71 19/86/70
f 116/168/145 115/167/144 19/86/70 18/85/69
f 117/169/146 116/168/145 18/85/69 17/84/68
f 118/170/147 117/169/146 17/84/68 16/83/67
f 119/171/148 118/170/147 16/83/67 15/82/66
f 120/172/149 119/171/148 15/82/66 14/81/65
f 121/173/150 120/172/149 14/81/65 13/80/64
f 122/174/151 121/173/150 13/80/64 12/79/63
f 113/166/143 122/174/151 12/79/63 11/78/62
s 6
usemtl blinn1SG
f 1/88/152 2/108/153 124/144/123 123/143/122
f 2/108/153 3/106/154 125/147/126 124/144/123
f 3/106/154 4/175/155 126/149/128 125/147/126
f 4/175/155 5/176/156 127/151/130 126/149/128
f 5/176/156 6/177/157 128/153/132 127/151/130
f 6/177/157 7/98/158 129/155/134 128/153/132
f 7/98/158 8/96/159 130/157/136 129/155/134
f 8/96/159 9/93/160 131/159/138 130/157/136
f 9/93/160 10/178/161 132/161/140 131/159/138
f 10/179/161 1/88/152 123/143/122 132/163/140
f 1/88/152 10/179/161 133/89/162
s 7
f 44/180/163 43/181/164 134/182/165
s 6
f 10/178/161 9/93/160 133/92/162
s 7
f 45/183/166 44/184/163 134/185/165
s 6
f 7/98/158 6/177/157 135/100/167
s 7
usemtl initialShadingGroup
f 48/186/168 47/187/169 136/188/170
s 6
usemtl blinn1SG
f 6/177/157 5/176/156 137/102/171 135/100/167
s 7
f 49/189/172 48/186/168 136/188/170 138/190/173
s 6
f 5/176/156 4/175/155 139/104/174 137/102/171
s 7
f 50/191/175 49/189/172 138/190/173 140/192/176
s 6
f 4/175/155 3/106/154 139/104/174
s 7
f 51/193/177 50/191/175 140/192/176
s 3
usemtl blinn5SG
f 43/194/178 44/195/179 142/54/50 141/35/33
f 44/196/179 45/197/180 143/50/48 142/52/50
f 45/197/180 46/198/181 144/48/46 143/50/48
f 46/198/181 47/199/182 145/46/44 144/48/46
f 47/199/182 48/200/183 146/44/42 145/46/44
f 48/200/183 49/201/184 147/42/40 146/44/42
f 49/201/184 50/202/185 148/40/38 147/42/40
f 50/202/185 51/203/186 149/38/36 148/40/38
f 51/203/186 52/204/187 150/34/32 149/38/36
f 52/204/187 43/194/178 141/35/33 150/34/32
s 9
usemtl blinn1SG
f 113/205/188 114/206/189 152/207/190 151/208/191
f 114/209/189 115/210/192 153/211/193 152/212/190
f 115/210/192 116/213/194 154/214/195 153/211/193
f 116/213/194 117/215/196 155/216/197 154/214/195
f 117/215/196 118/217/198 156/218/199 155/216/197
f 118/217/198 119/219/200 157/220/201 156/218/199
f 119/219/200 120/221/202 158/222/203 157/220/201
f 120/221/202 121/223/204 159/224/205 158/222/203
f 121/223/204 122/225/206 160/226/207 159/224/205
f 122/225/206 113/205/188 151/208/191 160/226/207
s 7
f 134/182/165 43/181/164 162/91/208 161/90/209
f 45/183/166 134/185/165 161/95/209 163/94/210
f 46/227/211 45/183/166 163/94/210 164/97/212
f 47/187/169 46/227/211 164/97/212 165/99/213
f 136/188/170 47/187/169 165/99/213 166/101/214
f 138/190/173 136/188/170 166/101/214 167/103/215
f 140/192/176 138/190/173 167/103/215 168/105/216
f 51/193/177 140/192/176 168/105/216 169/107/217
f 52/228/218 51/193/177 169/107/217 170/109/219
f 43/181/164 52/228/218 170/109/219 162/91/208
s 3
usemtl blinn6SG
f 172/59/53 171/58/52 224/229/220 182/230/221
f 173/61/54 172/59/53 182/230/221 183/231/222
f 174/63/55 173/61/54 183/231/222 184/232/223
f 175/65/56 174/63/55 184/232/223 185/233/224
f 176/67/57 175/65/56 185/233/224 186/234/225
f 177/69/58 176/67/57 186/234/225 187/235/226
f 178/71/59 177/69/58 187/235/226 188/236/227
f 179/73/60 178/71/59 188/236/227 225/237/228
f 180/75/61 179/73/60 225/237/228 226/238/229
f 171/58/52 180/77/61 226/239/229 224/229/220
f 191/240/230 192/241/231 210/242/232 209/243/233
f 192/241/231 191/240/230 193/244/234 194/245/235
f 194/245/235 193/244/234 195/246/236 196/247/237
f 196/247/237 195/246/236 197/248/238 198/249/239
f 198/249/239 197/248/238 199/250/240 200/251/241
f 200/251/241 199/250/240 201/252/242 202/253/243
f 202/253/243 201/252/242 203/254/244 204/255/245
f 204/255/245 203/254/244 205/256/246 206/257/247
f 206/257/247 205/256/246 207/258/248 208/259/249
f 208/259/249 207/258/248 209/243/233 210/242/232
f 193/244/234 191/240/230 31/260/250
f 195/246/236 193/244/234 31/260/250
f 197/248/238 195/246/236 31/260/250
f 199/250/240 197/248/238 31/260/250
f 201/252/242 199/250/240 31/260/250
f 203/254/244 201/252/242 31/260/250
f 205/256/246 203/254/244 31/260/250
f 207/258/248 205/256/246 31/260/250
f 209/243/233 207/258/248 31/260/250
f 191/240/230 209/243/233 31/260/250
f 182/230/221 181/261/251 211/262/252 212/263/253
f 183/231/222 182/230/221 212/263/253 213/264/254
f 184/232/223 183/231/222 213/264/254 214/265/255
f 185/233/224 184/232/223 214/265/255 215/266/256
f 186/234/225 185/233/224 215/266/256 216/267/257
f 187/235/226 186/234/225 216/267/257 217/268/258
f 188/236/227 187/235/226 217/268/258 218/269/259
f 189/270/260 188/236/227 218/269/259 219/271/261
f 190/272/262 189/270/260 219/271/261 220/273/263
f 181/261/251 190/274/262 220/275/263 211/262/252
f 229/276/264 230/277/265 228/278/266
f 213/264/254 212/263/253 194/279/235 196/280/237
f 221/281/267 213/264/254 196/280/237 198/282/239
f 222/283/268 221/281/267 198/282/239 200/284/241
f 223/285/269 222/283/268 200/284/241 202/286/243
f 217/268/258 223/285/269 202/286/243 204/287/245
f 218/269/259 217/268/258 204/287/245 206/288/247
f 219/271/261 218/269/259 206/288/247 208/289/249
f 220/273/263 219/271/261 208/289/249 210/290/232
f 211/262/252 220/275/263 210/291/232 192/292/231
f 212/263/253 211/262/252 192/292/231 194/279/235
f 241/293/270 242/294/271 227/295/272
f 244/296/273 237/297/274 227/295/272
f 237/297/274 238/298/275 227/295/272
f 239/299/276 240/300/277 227/295/272
f 243/301/278 244/296/273 227/295/272
f 240/300/277 241/293/270 227/295/272
f 236/302/279 229/276/264 228/278/266
f 231/303/280 232/304/281 228/278/266
f 235/305/282 236/302/279 228/278/266
f 232/304/281 233/306/283 228/278/266
f 233/306/283 234/307/284 228/278/266
f 234/307/284 235/305/282 228/278/266
f 228/278/266 230/277/265 231/303/280
f 238/298/275 239/299/276 227/295/272
f 227/295/272 242/294/271 243/301/278
f 214/265/255 213/264/254 230/277/265 229/276/264
f 231/303/280 230/277/265 213/264/254 221/281/267
f 221/281/267 222/283/268 232/304/281 231/303/280
f 222/283/268 223/285/269 233/306/283 232/304/281
f 217/268/258 234/307/284 233/306/283 223/285/269
f 216/267/257 235/305/282 234/307/284 217/268/258
f 216/267/257 215/266/256 236/302/279 235/305/282
f 215/266/256 214/265/255 229/276/264 236/302/279
f 188/236/227 238/298/275 237/297/274 225/237/228
f 189/270/260 239/299/276 238/298/275 188/236/227
f 189/270/260 190/272/262 240/300/277 239/299/276
f 190/272/262 181/308/251 241/293/270 240/300/277
f 181/308/251 182/309/221 242/294/271 241/293/270
f 243/301/278 242/294/271 182/309/221 224/310/220
f 224/310/220 226/238/229 244/296/273 243/301/278
f 226/238/229 225/237/228 237/297/274 244/296/273
s 12
usemtl blinn3SG
f 305/311/285 306/312/286 307/313/287 308/314/288
f 306/312/286 305/311/285 309/315/289 310/316/290
f 310/316/290 309/315/289 311/317/291 312/318/292
f 312/318/292 311/317/291 313/319/293 314/320/294
f 314/320/294 313/319/293 315/321/295 316/322/296
f 316/322/296 315/321/295 317/323/297 318/324/298
f 318/324/298 317/323/297 319/325/299 320/326/300
f 320/326/300 319/325/299 321/327/301 322/328/302
f 322/328/302 321/327/301 323/329/303 324/330/304
f 324/330/304 323/329/303 308/331/288 307/332/287
s 1
usemtl blinn1SG
f 246/333/305 247/334/306 74/111/93 73/110/92
f 247/334/306 249/335/307 75/114/96 74/111/93
f 249/335/307 251/336/308 76/116/98 75/114/96
f 251/336/308 253/337/309 77/118/100 76/116/98
f 253/337/309 255/338/310 78/120/102 77/118/100
f 255/338/310 257/339/311 79/122/104 78/120/102
f 257/339/311 259/340/312 80/124/106 79/122/104
f 259/340/312 261/341/313 81/126/108 80/124/106
f 261/341/313 263/342/314 82/128/110 81/126/108
f 263/343/314 246/333/305 73/110/92 82/130/110
s 6
f 103/146/125 104/145/124 248/344/315 245/345/316
f 104/145/124 105/148/127 250/346/317 248/344/315
f 105/148/127 106/150/129 252/347/318 250/346/317
f 106/150/129 107/152/131 254/348/319 252/347/318
f 107/152/131 108/154/133 256/349/320 254/348/319
f 108/154/133 109/156/135 258/350/321 256/349/320
f 109/156/135 110/158/137 260/351/322 258/350/321
f 110/158/137 111/160/139 262/352/323 260/351/322
f 111/160/139 112/162/141 264/353/324 262/352/323
f 112/164/141 103/146/125 245/345/316 264/354/324
s 13
usemtl blinn3SG
f 285/355/325 286/356/326 287/357/327 288/358/328
f 286/356/326 285/355/325 289/359/329 290/360/330
f 288/361/328 287/362/327 291/363/331 292/364/332
f 292/364/332 291/363/331 293/365/333 294/366/334
f 294/366/334 293/365/333 295/367/335 296/368/336
f 296/368/336 295/367/335 297/369/337 298/370/338
f 298/370/338 297/369/337 299/371/339 300/372/340
f 300/372/340 299/371/339 301/373/341 302/374/342
f 302/374/342 301/373/341 303/375/343 304/376/344
f 304/376/344 303/375/343 290/360/330 289/359/329
s 1
usemtl blinn1SG
f 64/22/20 63/4/4 265/377/345 267/378/346
f 65/18/18 64/20/20 267/379/346 269/380/347
f 66/16/16 65/18/18 269/380/347 271/381/348
f 67/14/14 66/16/16 271/381/348 273/382/349
f 68/12/12 67/14/14 273/382/349 275/383/350
f 69/10/10 68/12/12 275/383/350 277/384/351
f 70/8/8 69/10/10 277/384/351 279/385/352
f 71/6/6 70/8/8 279/385/352 281/386/353
f 72/3/3 71/6/6 281/386/353 283/387/354
f 63/4/4 72/3/3 283/387/354 265/377/345
s 14
f 268/388/355 266/389/356 151/208/357 152/207/358
f 270/390/359 268/391/355 152/212/358 153/211/360
f 272/392/361 270/390/359 153/211/360 154/214/362
f 274/393/363 272/392/361 154/214/362 155/216/364
f 276/394/365 274/393/363 155/216/364 156/218/366
f 278/395/367 276/394/365 156/218/366 157/220/368
f 280/396/369 278/395/367 157/220/368 158/222/370
f 282/397/371 280/396/369 158/222/370 159/224/372
f 284/398/373 282/397/371 159/224/372 160/226/374
f 266/389/356 284/398/373 160/226/374 151/208/357
s 13
usemtl blinn3SG
f 266/399/375 268/400/376 287/357/327 286/356/326
f 267/401/377 265/402/378 285/355/325 288/358/328
f 265/402/378 283/403/379 289/359/329 285/355/325
f 284/404/380 266/399/375 286/356/326 290/360/330
f 268/405/376 270/406/381 291/363/331 287/362/327
f 269/407/382 267/408/377 288/361/328 292/364/332
f 270/406/381 272/409/383 293/365/333 291/363/331
f 271/410/384 269/407/382 292/364/332 294/366/334
f 272/409/383 274/411/385 295/367/335 293/365/333
f 273/412/386 271/410/384 294/366/334 296/368/336
f 274/411/385 276/413/387 297/369/337 295/367/335
f 275/414/388 273/412/386 296/368/336 298/370/338
f 276/413/387 278/415/389 299/371/339 297/369/337
f 277/416/390 275/414/388 298/370/338 300/372/340
f 278/415/389 280/417/391 301/373/341 299/371/339
f 279/418/392 277/416/390 300/372/340 302/374/342
f 280/417/391 282/419/393 303/375/343 301/373/341
f 281/420/394 279/418/392 302/374/342 304/376/344
f 282/419/393 284/404/380 290/360/330 303/375/343
f 283/403/379 281/420/394 304/376/344 289/359/329
s 12
f 246/421/395 263/422/396 307/313/287 306/312/286
f 264/423/397 245/424/398 305/311/285 308/314/288
f 245/424/398 248/425/399 309/315/289 305/311/285
f 247/426/400 246/421/395 306/312/286 310/316/290
f 248/425/399 250/427/401 311/317/291 309/315/289
f 249/428/402 247/426/400 310/316/290 312/318/292
f 250/427/401 252/429/403 313/319/293 311/317/291
f 251/430/404 249/428/402 312/318/292 314/320/294
f 252/429/403 254/431/405 315/321/295 313/319/293
f 253/432/406 251/430/404 314/320/294 316/322/296
f 254/431/405 256/433/407 317/323/297 315/321/295
f 255/434/408 253/432/406 316/322/296 318/324/298
f 256/433/407 258/435/409 319/325/299 317/323/297
f 257/436/410 255/434/408 318/324/298 320/326/300
f 258/435/409 260/437/411 321/327/301 319/325/299
f 259/438/412 257/436/410 320/326/300 322/328/302
f 260/437/411 262/439/413 323/329/303 321/327/301
f 261/440/414 259/438/412 322/328/302 324/330/304
f 262/439/413 264/441/397 308/331/288 323/329/303
f 263/442/396 261/440/414 324/330/304 307/332/287
s 15
usemtl blinn4SG
f 326/443/415 325/444/416 345/445/417 346/446/418
f 327/447/419 326/443/415 346/446/418 347/448/420
f 328/449/421 327/447/419 347/448/420 348/450/422
f 329/451/423 328/449/421 348/450/422 349/452/424
f 330/453/425 329/451/423 349/452/424 350/454/426
f 331/455/427 330/453/425 350/454/426 351/456/428
f 332/457/429 331/455/427 351/456/428 352/458/430
f 333/459/431 332/457/429 352/458/430 353/460/432
f 334/461/433 333/459/431 353/460/432 354/462/434
f 335/463/435 334/461/433 354/462/434 355/464/436
f 336/465/437 335/463/435 355/464/436 356/466/438
f 337/467/439 336/465/437 356/466/438 357/468/440
f 338/469/441 337/467/439 357/468/440 358/470/442
f 339/471/443 338/469/441 358/470/442 359/472/444
f 340/473/445 339/471/443 359/472/444 360/474/446
f 341/475/447 340/473/445 360/474/446 361/476/448
f 342/477/449 341/475/447 361/476/448 362/478/450
f 343/479/451 342/477/449 362/478/450 363/480/452
f 344/481/453 343/479/451 363/480/452 364/482/454
f 325/483/416 344/481/453 364/482/454 345/484/417
f 346/446/418 345/445/417 365/485/455 366/486/456
f 347/448/420 346/446/418 366/486/456 367/487/457
f 348/450/422 347/448/420 367/487/457 368/488/458
f 349/452/424 348/450/422 368/488/458 369/489/459
f 350/454/426 349/452/424 369/489/459 370/490/460
f 351/456/428 350/454/426 370/490/460 371/491/461
f 352/458/430 351/456/428 371/491/461 372/492/462
f 353/460/432 352/458/430 372/492/462 373/493/463
f 354/462/434 353/460/432 373/493/463 374/494/464
f 355/464/436 354/462/434 374/494/464 375/495/465
f 356/466/438 355/464/436 375/495/465 376/496/466
f 357/468/440 356/466/438 376/496/466 377/497/467
f 358/470/442 357/468/440 377/497/467 378/498/468
f 359/472/444 358/470/442 378/498/468 379/499/469
f 360/474/446 359/472/444 379/499/469 380/500/470
f 361/476/448 360/474/446 380/500/470 381/501/471
f 362/478/450 361/476/448 381/501/471 382/502/472
f 363/480/452 362/478/450 382/502/472 383/503/473
f 364/482/454 363/480/452 383/503/473 384/504/474
f 345/484/417 364/482/454 384/504/474 365/505/455
f 366/486/456 365/485/455 385/506/475 386/507/476
f 367/487/457 366/486/456 386/507/476 387/508/477
f 368/488/458 367/487/457 387/508/477 388/509/478
f 369/489/459 368/488/458 388/509/478 389/510/479
f 370/490/460 369/489/459 389/510/479 390/511/480
f 371/491/461 370/490/460 390/511/480 391/512/481
f 372/492/462 371/491/461 391/512/481 392/513/482
f 373/493/463 372/492/462 392/513/482 393/514/483
f 374/494/464 373/493/463 393/514/483 394/515/484
f 375/495/465 374/494/464 394/515/484 395/516/485
f 376/496/466 375/495/465 395/516/485 396/517/486
f 377/497/467 376/496/466 396/517/486 397/518/487
f 378/498/468 377/497/467 397/518/487 398/519/488
f 379/499/469 378/498/468 398/519/488 399/520/489
f 380/500/470 379/499/469 399/520/489 400/521/490
f 381/501/471 380/500/470 400/521/490 401/522/491
f 382/502/472 381/501/471 401/522/491 402/523/492
f 383/503/473 382/502/472 402/523/492 403/524/493
f 384/504/474 383/503/473 403/524/493 404/525/494
f 365/505/455 384/504/474 404/525/494 385/526/475
f 386/507/476 385/506/475 405/527/495 406/528/496
f 387/508/477 386/507/476 406/528/496 407/529/497
f 388/509/478 387/508/477 407/529/497 408/530/498
f 389/510/479 388/509/478 408/530/498 409/531/499
f 390/511/480 389/510/479 409/531/499 410/532/500
f 391/512/481 390/511/480 410/532/500 411/533/501
f 392/513/482 391/512/481 411/533/501 412/534/502
f 393/514/483 392/513/482 412/534/502 413/535/503
f 394/515/484 393/514/483 413/535/503 414/536/504
f 395/516/485 394/515/484 414/536/504 415/537/505
f 396/517/486 395/516/485 415/537/505 416/538/506
f 397/518/487 396/517/486 416/538/506 417/539/507
f 398/519/488 397/518/487 417/539/507 418/540/508
f 399/520/489 398/519/488 418/540/508 419/541/509
f 400/521/490 399/520/489 419/541/509 420/542/510
f 401/522/491 400/521/490 420/542/510 421/543/511
f 402/523/492 401/522/491 421/543/511 422/544/512
f 403/524/493 402/523/492 422/544/512 423/545/513
f 404/525/494 403/524/493 423/545/513 424/546/514
f 385/526/475 404/525/494 424/546/514 405/547/495
f 406/528/496 405/527/495 425/548/515 426/549/516
f 407/529/497 406/528/496 426/549/516 427/550/517
f 408/530/498 407/529/497 427/550/517 428/551/518
f 409/531/499 408/530/498 428/551/518 429/552/519
f 410/532/500 409/531/499 429/552/519 430/553/520
f 411/533/501 410/532/500 430/553/520 431/554/521
f 412/534/502 411/533/501 431/554/521 432/555/522
f 413/535/503 412/534/502 432/555/522 433/556/523
f 414/536/504 413/535/503 433/556/523 434/557/524
f 415/537/505 414/536/504 434/557/524 435/558/525
f 416/538/506 415/537/505 435/558/525 436/559/526
f 417/539/507 416/538/506 436/559/526 437/560/527
f 418/540/508 417/539/507 437/560/527 438/561/528
f 419/541/509 418/540/508 438/561/528 439/562/529
f 420/542/510 419/541/509 439/562/529 440/563/530
f 421/543/511 420/542/510 440/563/530 441/564/531
f 422/544/512 421/543/511 441/564/531 442/565/532
f 423/545/513 422/544/512 442/565/532 443/566/533
f 424/546/514 423/545/513 443/566/533 444/567/534
f 405/547/495 424/546/514 444/567/534 425/568/515
f 426/549/516 425/548/515 445/569/535 446/570/536
f 427/550/517 426/549/516 446/570/536 447/571/537
f 428/551/518 427/550/517 447/571/537 448/572/538
f 429/552/519 428/551/518 448/572/538 449/573/539
f 430/553/520 429/552/519 449/573/539 450/574/540
f 431/554/521 430/553/520 450/574/540 451/575/541
f 432/555/522 431/554/521 451/575/541 452/576/542
f 433/556/523 432/555/522 452/576/542 453/577/543
f 434/557/524 433/556/523 453/577/543 454/578/544
f 435/558/525 434/557/524 454/578/544 455/579/545
f 436/559/526 435/558/525 455/579/545 456/580/546
f 437/560/527 436/559/526 456/580/546 457/581/547
f 438/561/528 437/560/527 457/581/547 458/582/548
f 439/562/529 438/561/528 458/582/548 459/583/549
f 440/563/530 439/562/529 459/583/549 460/584/550
f 441/564/531 440/563/530 460/584/550 461/585/551
f 442/565/532 441/564/531 461/585/551 462/586/552
f 443/566/533 442/565/532 462/586/552 463/587/553
f 444/567/534 443/566/533 463/587/553 464/588/554
f 425/568/515 444/567/534 464/588/554 445/589/535
f 446/570/536 445/569/535 465/590/555 466/591/556
f 447/571/537 446/570/536 466/591/556 467/592/557
f 448/572/538 447/571/537 467/592/557 468/593/558
f 449/573/539 448/572/538 468/593/558 469/594/559
f 450/574/540 449/573/539 469/594/559 470/595/560
f 451/575/541 450/574/540 470/595/560 471/596/561
f 452/576/542 451/575/541 471/596/561 472/597/562
f 453/577/543 452/576/542 472/597/562 473/598/563
f 454/578/544 453/577/543 473/598/563 474/599/564
f 455/579/545 454/578/544 474/599/564 475/600/565
f 456/580/546 455/579/545 475/600/565 476/601/566
f 457/581/547 456/580/546 476/601/566 477/602/567
f 458/582/548 457/581/547 477/602/567 478/603/568
f 459/583/549 458/582/548 478/603/568 479/604/569
f 460/584/550 459/583/549 479/604/569 480/605/570
f 461/585/551 460/584/550 480/605/570 481/606/571
f 462/586/552 461/585/551 481/606/571 482/607/572
f 463/587/553 462/586/552 482/607/572 483/608/573
f 464/588/554 463/587/553 483/608/573 484/609/574
f 445/589/535 464/588/554 484/609/574 465/610/555
f 466/591/556 465/590/555 325/611/416 326/612/415
f 467/592/557 466/591/556 326/612/415 327/613/419
f 468/593/558 467/592/557 327/613/419 328/614/421
f 469/594/559 468/593/558 328/614/421 329/615/423
f 470/595/560 469/594/559 329/615/423 330/616/425
f 471/596/561 470/595/560 330/616/425 331/617/427
f 472/597/562 471/596/561 331/617/427 332/618/429
f 473/598/563 472/597/562 332/618/429 333/619/431
f 474/599/564 473/598/563 333/619/431 334/620/433
f 475/600/565 474/599/564 334/620/433 335/621/435
f 476/601/566 475/600/565 335/621/435 336/622/437
f 477/602/567 476/601/566 336/622/437 337/623/439
f 478/603/568 477/602/567 337/623/439 338/624/441
f 479/604/569 478/603/568 338/624/441 339/625/443
f 480/605/570 479/604/569 339/625/443 340/626/445
f 481/606/571 480/605/570 340/626/445 341/627/447
f 482/607/572 481/606/571 341/627/447 342/628/449
f 483/608/573 482/607/572 342/628/449 343/629/451
f 484/609/574 483/608/573 343/629/451 344/630/453
f 465/610/555 484/609/574 344/630/453 325/631/416
s 16
f 486/632/575 485/633/576 505/634/577 506/635/578
f 487/636/579 486/632/575 506/635/578 507/637/580
f 488/638/581 487/636/579 507/637/580 508/639/582
f 489/640/583 488/638/581 508/639/582 509/641/584
f 490/642/585 489/640/583 509/641/584 510/643/586
f 491/644/587 490/642/585 510/643/586 511/645/588
f 492/646/589 491/644/587 511/645/588 512/647/590
f 493/648/591 492/646/589 512/647/590 513/649/592
f 494/650/593 493/648/591 513/649/592 514/651/594
f 495/652/595 494/650/593 514/651/594 515/653/596
f 496/654/597 495/652/595 515/653/596 516/655/598
f 497/656/599 496/654/597 516/655/598 517/657/600
f 498/658/601 497/656/599 517/657/600 518/659/602
f 499/660/603 498/658/601 518/659/602 519/661/604
f 500/662/605 499/660/603 519/661/604 520/663/606
f 501/664/607 500/662/605 520/663/606 521/665/608
f 502/666/609 501/664/607 521/665/608 522/667/610
f 503/668/611 502/666/609 522/667/610 523/669/612
f 504/670/613 503/668/611 523/669/612 524/671/614
f 485/672/576 504/670/613 524/671/614 505/673/577
f 506/635/578 505/634/577 525/674/615 526/675/616
f 507/637/580 506/635/578 526/675/616 527/676/617
f 508/639/582 507/637/580 527/676/617 528/677/618
f 509/641/584 508/639/582 528/677/618 529/678/619
f 510/643/586 509/641/584 529/678/619 530/679/620
f 511/645/588 510/643/586 530/679/620 531/680/621
f 512/647/590 511/645/588 531/680/621 532/681/622
f 513/649/592 512/647/590 532/681/622 533/682/623
f 514/651/594 513/649/592 533/682/623 534/683/624
f 515/653/596 514/651/594 534/683/624 535/684/625
f 516/655/598 515/653/596 535/684/625 536/685/626
f 517/657/600 516/655/598 536/685/626 537/686/627
f 518/659/602 517/657/600 537/686/627 538/687/628
f 519/661/604 518/659/602 538/687/628 539/688/629
f 520/663/606 519/661/604 539/688/629 540/689/630
f 521/665/608 520/663/606 540/689/630 541/690/631
f 522/667/610 521/665/608 541/690/631 542/691/632
f 523/669/612 522/667/610 542/691/632 543/692/633
f 524/671/614 523/669/612 543/692/633 544/693/634
f 505/673/577 524/671/614 544/693/634 525/694/615
f 526/675/616 525/674/615 545/695/635 546/696/636
f 527/676/617 526/675/616 546/696/636 547/697/637
f 528/677/618 527/676/617 547/697/637 548/698/638
f 529/678/619 528/677/618 548/698/638 549/699/639
f 530/679/620 529/678/619 549/699/639 550/700/640
f 531/680/621 530/679/620 550/700/640 551/701/641
f 532/681/622 531/680/621 551/701/641 552/702/642
f 533/682/623 532/681/622 552/702/642 553/703/643
f 534/683/624 533/682/623 553/703/643 554/704/644
f 535/684/625 534/683/624 554/704/644 555/705/645
f 536/685/626 535/684/625 555/705/645 556/706/646
f 537/686/627 536/685/626 556/706/646 557/707/647
f 538/687/628 537/686/627 557/707/647 558/708/648
f 539/688/629 538/687/628 558/708/648 559/709/649
f 540/689/630 539/688/629 559/709/649 560/710/650
f 541/690/631 540/689/630 560/710/650 561/711/651
f 542/691/632 541/690/631 561/711/651 562/712/652
f 543/692/633 542/691/632 562/712/652 563/713/653
f 544/693/634 543/692/633 563/713/653 564/714/654
f 525/694/615 544/693/634 564/714/654 545/715/635
f 546/696/636 545/695/635 565/716/655 566/717/656
f 547/697/637 546/696/636 566/717/656 567/718/657
f 548/698/638 547/697/637 567/718/657 568/719/658
f 549/699/639 548/698/638 568/719/658 569/720/659
f 550/700/640 549/699/639 569/720/659 570/721/660
f 551/701/641 550/700/640 570/721/660 571/722/661
f 552/702/642 551/701/641 571/722/661 572/723/662
f 553/703/643 552/702/642 572/723/662 573/724/663
f 554/704/644 553/703/643 573/724/663 574/725/664
f 555/705/645 554/704/644 574/725/664 575/726/665
f 556/706/646 555/705/645 575/726/665 576/727/666
f 557/707/647 556/706/646 576/727/666 577/728/667
f 558/708/648 557/707/647 577/728/667 578/729/668
f 559/709/649 558/708/648 578/729/668 579/730/669
f 560/710/650 559/709/649 579/730/669 580/731/670
f 561/711/651 560/710/650 580/731/670 581/732/671
f 562/712/652 561/711/651 581/732/671 582/733/672
f 563/713/653 562/712/652 582/733/672 583/734/673
f 564/714/654 563/713/653 583/734/673 584/735/674
f 545/715/635 564/714/654 584/735/674 565/736/655
f 566/717/656 565/716/655 585/737/675 586/738/676
f 567/718/657 566/717/656 586/738/676 587/739/677
f 568/719/658 567/718/657 587/739/677 588/740/678
f 569/720/659 568/719/658 588/740/678 589/741/679
f 570/721/660 569/720/659 589/741/679 590/742/680
f 571/722/661 570/721/660 590/742/680 591/743/681
f 572/723/662 571/722/661 591/743/681 592/744/682
f 573/724/663 572/723/662 592/744/682 593/745/683
f 574/725/664 573/724/663 593/745/683 594/746/684
f 575/726/665 574/725/664 594/746/684 595/747/685
f 576/727/666 575/726/665 595/747/685 596/748/686
f 577/728/667 576/727/666 596/748/686 597/749/687
f 578/729/668 577/728/667 597/749/687 598/750/688
f 579/730/669 578/729/668 598/750/688 599/751/689
f 580/731/670 579/730/669 599/751/689 600/752/690
f 581/732/671 580/731/670 600/752/690 601/753/691
f 582/733/672 581/732/671 601/753/691 602/754/692
f 583/734/673 582/733/672 602/754/692 603/755/693
f 584/735/674 583/734/673 603/755/693 604/756/694
f 565/736/655 584/735/674 604/756/694 585/757/675
f 586/738/676 585/737/675 605/758/695 606/759/696
f 587/739/677 586/738/676 606/759/696 607/760/697
f 588/740/678 587/739/677 607/760/697 608/761/698
f 589/741/679 588/740/678 608/761/698 609/762/699
f 590/742/680 589/741/679 609/762/699 610/763/700
f 591/743/681 590/742/680 610/763/700 611/764/701
f 592/744/682 591/743/681 611/764/701 612/765/702
f 593/745/683 592/744/682 612/765/702 613/766/703
f 594/746/684 593/745/683 613/766/703 614/767/704
f 595/747/685 594/746/684 614/767/704 615/768/705
f 596/748/686 595/747/685 615/768/705 616/769/706
f 597/749/687 596/748/686 616/769/706 617/770/707
f 598/750/688 597/749/687 617/770/707 618/771/708
f 599/751/689 598/750/688 618/771/708 619/772/709
f 600/752/690 599/751/689 619/772/709 620/773/710
f 601/753/691 600/752/690 620/773/710 621/774/711
f 602/754/692 601/753/691 621/774/711 622/775/712
f 603/755/693 602/754/692 622/775/712 623/776/713
f 604/756/694 603/755/693 623/776/713 624/777/714
f 585/757/675 604/756/694 624/777/714 605/778/695
f 606/759/696 605/758/695 625/779/715 626/780/716
f 607/760/697 606/759/696 626/780/716 627/781/717
f 608/761/698 607/760/697 627/781/717 628/782/718
f 609/762/699 608/761/698 628/782/718 629/783/719
f 610/763/700 609/762/699 629/783/719 630/784/720
f 611/764/701 610/763/700 630/784/720 631/785/721
f 612/765/702 611/764/701 631/785/721 632/786/722
f 613/766/703 612/765/702 632/786/722 633/787/723
f 614/767/704 613/766/703 633/787/723 634/788/724
f 615/768/705 614/767/704 634/788/724 635/789/725
f 616/769/706 615/768/705 635/789/725 636/790/726
f 617/770/707 616/769/706 636/790/726 637/791/727
f 618/771/708 617/770/707 637/791/727 638/792/728
f 619/772/709 618/771/708 638/792/728 639/793/729
f 620/773/710 619/772/709 639/793/729 640/794/730
f 621/774/711 620/773/710 640/794/730 641/795/731
f 622/775/712 621/774/711 641/795/731 642/796/732
f 623/776/713 622/775/712 642/796/732 643/797/733
f 624/777/714 623/776/713 643/797/733 644/798/734
f 605/778/695 624/777/714 644/798/734 625/799/715
f 626/780/716 625/779/715 485/800/576 486/801/575
f 627/781/717 626/780/716 486/801/575 487/802/579
f 628/782/718 627/781/717 487/802/579 488/803/581
f 629/783/719 628/782/718 488/803/581 489/804/583
f 630/784/720 629/783/719 489/804/583 490/805/585
f 631/785/721 630/784/720 490/805/585 491/806/587
f 632/786/722 631/785/721 491/806/587 492/807/589
f 633/787/723 632/786/722 492/807/589 493/808/591
f 634/788/724 633/787/723 493/808/591 494/809/593
f 635/789/725 634/788/724 494/809/593 495/810/595
f 636/790/726 635/789/725 495/810/595 496/811/597
f 637/791/727 636/790/726 496/811/597 497/812/599
f 638/792/728 637/791/727 497/812/599 498/813/601
f 639/793/729 638/792/728 498/813/601 499/814/603
f 640/794/730 639/793/729 499/814/603 500/815/605
f 641/795/731 640/794/730 500/815/605 501/816/607
f 642/796/732 641/795/731 501/816/607 502/817/609
f 643/797/733 642/796/732 502/817/609 503/818/611
f 644/798/734 643/797/733 503/818/611 504/819/613
f 625/799/715 644/798/734 504/819/613 485/820/576
